<?xml version="1.0" encoding="UTF-8"?>
<!DOCTYPE svg PUBLIC "-//W3C//DTD SVG 1.1//EN" "http://www.w3.org/Graphics/SVG/1.1/DTD/svg11.dtd">
<svg version="1.1" xmlns="http://www.w3.org/2000/svg" xmlns:xlink="http://www.w3.org/1999/xlink" width="0.8in" height="0.3in" viewBox="0 0 80 30">
	<defs>
		<polyline id="pin-template" points="0,0 20,0"/>
		<circle id="terminal-template" cx="0" cy="0" r="0.001"/>
	</defs>
	<g id="schematic">
		<g fill="none" stroke-width="1">
			<rect fill="#FFFFFF" stroke="#000000" x="20" y="0" width="40" height="30"/>
			<g stroke="#787878" stroke-linecap="round">
				<g transform="translate(0,10)">
					<g transform="translate(0,0)">
						<use id="connector-A0-pin" xlink:href="#pin-template"/>
						<use id="connector-A0-terminal" xlink:href="terminal-template"/>
					</g>
					<g transform="translate(0,10)">
						<use id="connector-A1-pin" xlink:href="#pin-template"/>
						<use id="connector-A1-terminal" xlink:href="terminal-template"/>
					</g>
				</g>
				<g transform="scale(-1,1) translate(-80,10)">
					<g transform="translate(0,0)">
						<use id="connector-K0-pin" xlink:href="#pin-template"/>
						<use id="connector-K0-terminal" xlink:href="terminal-template"/>
					</g>
					<g transform="translate(0,10)">
						<use id="connector-K1-pin" xlink:href="#pin-template"/>
						<use id="connector-K1-terminal" xlink:href="terminal-template"/>
					</g>
				</g>
			</g>
		</g>
		<g font-family="OCRA" text-anchor="middle" font-size="5">
			<text x="40" y="17">18650</text>
			<g transform="translate(0,0)">
				<g transform="translate(0,8)">
					<g transform="translate(10,0)">
						<text x="0" y="0">0 +</text>
					</g>
					<g transform="translate(70,0)">
						<text x="0" y="0">- 0</text>
					</g>
				</g>
			</g>
			<g transform="translate(0,10)">
				<g transform="translate(0,8)">
					<g transform="translate(10,0)">
						<text x="0" y="0">1 +</text>
					</g>
					<g transform="translate(70,0)">
						<text x="0" y="0">- 1</text>
					</g>
				</g>
			</g>
		</g>
	</g>
</svg>