<?xml version="1.0" encoding="UTF-8"?>
<!DOCTYPE svg PUBLIC "-//W3C//DTD SVG 1.1//EN" "http://www.w3.org/Graphics/SVG/1.1/DTD/svg11.dtd">
<svg height="0.8in" version="1.1" viewBox="0 0 80 80" width="0.8in" xmlns="http://www.w3.org/2000/svg" xmlns:xlink="http://www.w3.org/1999/xlink">
	<defs>
		<polyline fill="none" id="pin-template" points="-10,0 10,0" stroke="#888888" stroke-width="1"/>
		<circle cx="0" cy="0" id="terminal-template" opacity="0" r="0.001"/>
	</defs>
	<g id="schematic">
		<rect fill="#FFFFFF" height="80" stroke="#000000" stroke-width="1" width="40" x="20" y="0"/>
		<circle cx="25" cy="10" fill="#000000" r="1" stroke="none"/>
		<g transform="translate(40,10)">
			<text fill="#000000" font-family="OCRA" font-size="5" stroke="none" text-anchor="middle" transform="rotate(90)" x="30" y="1.25">7400</text>
			<g transform="translate(-30,0)">
				<g transform="translate(0,0)">
					<use id="connector-I0A-pin" transform="translate(0,0)" xlink:href="#pin-template"/>
					<use id="connector-I0B-pin" transform="translate(0,10)" xlink:href="#pin-template"/>
					<use id="connector-O0-pin" transform="translate(0,20)" xlink:href="#pin-template"/>
					<use id="connector-I1A-pin" transform="translate(0,30)" xlink:href="#pin-template"/>
					<use id="connector-I1B-pin" transform="translate(0,40)" xlink:href="#pin-template"/>
					<use id="connector-O1-pin" transform="translate(0,50)" xlink:href="#pin-template"/>
					<use id="connector-GND-pin" transform="translate(0,60)" xlink:href="#pin-template"/>
				</g>
				<g transform="translate(-10,0)">
					<use id="connector-I0A-terminal" transform="translate(0,0)" xlink:href="#terminal-template"/>
					<use id="connector-I0B-terminal" transform="translate(0,10)" xlink:href="#terminal-template"/>
					<use id="connector-O0-terminal" transform="translate(0,20)" xlink:href="#terminal-template"/>
					<use id="connector-I1A-terminal" transform="translate(0,30)" xlink:href="#terminal-template"/>
					<use id="connector-I1B-terminal" transform="translate(0,40)" xlink:href="#terminal-template"/>
					<use id="connector-O1-terminal" transform="translate(0,50)" xlink:href="#terminal-template"/>
					<use id="connector-GND-terminal" transform="translate(0,60)" xlink:href="#terminal-template"/>
				</g>
				<g fill="#888888" font-family="OCRA" font-size="3" stroke="none" text-anchor="end" transform="translate(5,-1.5)">
					<text x="0" y="0">I0A</text>
					<text x="0" y="10">I0B</text>
					<text x="0" y="20">O0</text>
					<text x="0" y="30">I1A</text>
					<text x="0" y="40">I1B</text>
					<text x="0" y="50">O1</text>
					<text x="0" y="60">GND</text>
				</g>
			</g>
			<g transform="translate(30,0)">
				<g transform="translate(0,0)">
					<use id="connector-O2-pin" transform="translate(0,60)" xlink:href="#pin-template"/>
					<use id="connector-I2B-pin" transform="translate(0,50)" xlink:href="#pin-template"/>
					<use id="connector-I2A-pin" transform="translate(0,40)" xlink:href="#pin-template"/>
					<use id="connector-O3-pin" transform="translate(0,30)" xlink:href="#pin-template"/>
					<use id="connector-I3B-pin" transform="translate(0,20)" xlink:href="#pin-template"/>
					<use id="connector-I3A-pin" transform="translate(0,10)" xlink:href="#pin-template"/>
					<use id="connector-VCC-pin" transform="translate(0,0)" xlink:href="#pin-template"/>
				</g>
				<g transform="translate(10,0)">
					<use id="connector-O2-terminal" transform="translate(0,60)" xlink:href="#terminal-template"/>
					<use id="connector-I2B-terminal" transform="translate(0,50)" xlink:href="#terminal-template"/>
					<use id="connector-I2A-terminal" transform="translate(0,40)" xlink:href="#terminal-template"/>
					<use id="connector-O3-terminal" transform="translate(0,30)" xlink:href="#terminal-template"/>
					<use id="connector-I3B-terminal" transform="translate(0,20)" xlink:href="#terminal-template"/>
					<use id="connector-I3A-terminal" transform="translate(0,10)" xlink:href="#terminal-template"/>
					<use id="connector-VCC-terminal" transform="translate(0,0)" xlink:href="#terminal-template"/>
				</g>
				<g fill="#888888" font-family="OCRA" font-size="3" stroke="none" text-anchor="start" transform="translate(-5,-1.5)">
					<text x="0" y="60">O2</text>
					<text x="0" y="50">I2B</text>
					<text x="0" y="40">I2A</text>
					<text x="0" y="30">O3</text>
					<text x="0" y="20">I3B</text>
					<text x="0" y="10">I3A</text>
					<text x="0" y="0">VCC</text>
				</g>
			</g>
		</g>
	</g>
</svg>