<?xml version="1.0" encoding="UTF-8"?>
<!DOCTYPE svg PUBLIC "-//W3C//DTD SVG 1.1//EN" "http://www.w3.org/Graphics/SVG/1.1/DTD/svg11.dtd">
<svg height="1.5in" version="1.1" viewBox="0 0 80 150" width="0.8in" xmlns="http://www.w3.org/2000/svg" xmlns:xlink="http://www.w3.org/1999/xlink">
	<defs>
		<polyline fill="none" id="pin-template" points="-10,0 10,0" stroke="#888888" stroke-width="1"/>
		<circle cx="0" cy="0" id="terminal-template" opacity="0" r="0.001"/>
	</defs>
	<g id="schematic">
		<rect fill="#FFFFFF" height="150" stroke="#000000" stroke-width="1" width="40" x="20" y="0"/>
		<circle cx="25" cy="10" fill="#000000" r="1" stroke="none"/>
		<g transform="translate(40,10)">
			<text fill="#000000" font-family="OCRA" font-size="5" stroke="none" text-anchor="middle" transform="rotate(90)" x="65" y="1.25">MCP23S17</text>
			<g transform="translate(-30,0)">
				<g transform="translate(0,0)">
					<use id="connector-DB0-pin" transform="translate(0,0)" xlink:href="#pin-template"/>
					<use id="connector-DB1-pin" transform="translate(0,10)" xlink:href="#pin-template"/>
					<use id="connector-DB2-pin" transform="translate(0,20)" xlink:href="#pin-template"/>
					<use id="connector-DB3-pin" transform="translate(0,30)" xlink:href="#pin-template"/>
					<use id="connector-DB4-pin" transform="translate(0,40)" xlink:href="#pin-template"/>
					<use id="connector-DB5-pin" transform="translate(0,50)" xlink:href="#pin-template"/>
					<use id="connector-DB6-pin" transform="translate(0,60)" xlink:href="#pin-template"/>
					<use id="connector-DB7-pin" transform="translate(0,70)" xlink:href="#pin-template"/>
					<use id="connector-VCC-pin" transform="translate(0,80)" xlink:href="#pin-template"/>
					<use id="connector-GND-pin" transform="translate(0,90)" xlink:href="#pin-template"/>
					<use id="connector-CS-pin" transform="translate(0,100)" xlink:href="#pin-template"/>
					<use id="connector-SCK-pin" transform="translate(0,110)" xlink:href="#pin-template"/>
					<use id="connector-SDI-pin" transform="translate(0,120)" xlink:href="#pin-template"/>
					<use id="connector-SDO-pin" transform="translate(0,130)" xlink:href="#pin-template"/>
				</g>
				<g transform="translate(-10,0)">
					<use id="connector-DB0-terminal" transform="translate(0,0)" xlink:href="#terminal-template"/>
					<use id="connector-DB1-terminal" transform="translate(0,10)" xlink:href="#terminal-template"/>
					<use id="connector-DB2-terminal" transform="translate(0,20)" xlink:href="#terminal-template"/>
					<use id="connector-DB3-terminal" transform="translate(0,30)" xlink:href="#terminal-template"/>
					<use id="connector-DB4-terminal" transform="translate(0,40)" xlink:href="#terminal-template"/>
					<use id="connector-DB5-terminal" transform="translate(0,50)" xlink:href="#terminal-template"/>
					<use id="connector-DB6-terminal" transform="translate(0,60)" xlink:href="#terminal-template"/>
					<use id="connector-DB7-terminal" transform="translate(0,70)" xlink:href="#terminal-template"/>
					<use id="connector-VCC-terminal" transform="translate(0,80)" xlink:href="#terminal-template"/>
					<use id="connector-GND-terminal" transform="translate(0,90)" xlink:href="#terminal-template"/>
					<use id="connector-CS-terminal" transform="translate(0,100)" xlink:href="#terminal-template"/>
					<use id="connector-SCK-terminal" transform="translate(0,110)" xlink:href="#terminal-template"/>
					<use id="connector-SDI-terminal" transform="translate(0,120)" xlink:href="#terminal-template"/>
					<use id="connector-SDO-terminal" transform="translate(0,130)" xlink:href="#terminal-template"/>
				</g>
				<g fill="#888888" font-family="OCRA" font-size="3" stroke="none" text-anchor="end" transform="translate(5,-1.5)">
					<text x="0" y="0">DB0</text>
					<text x="0" y="10">DB1</text>
					<text x="0" y="20">DB2</text>
					<text x="0" y="30">DB3</text>
					<text x="0" y="40">DB4</text>
					<text x="0" y="50">DB5</text>
					<text x="0" y="60">DB6</text>
					<text x="0" y="70">DB7</text>
					<text x="0" y="80">VCC</text>
					<text x="0" y="90">GND</text>
					<text x="0" y="100">CS</text>
					<text x="0" y="110">SCK</text>
					<text x="0" y="120">SDI</text>
					<text x="0" y="130">SDO</text>
				</g>
			</g>
			<g transform="translate(30,0)">
				<g transform="translate(0,0)">
					<use id="connector-A0-pin" transform="translate(0,130)" xlink:href="#pin-template"/>
					<use id="connector-A1-pin" transform="translate(0,120)" xlink:href="#pin-template"/>
					<use id="connector-A2-pin" transform="translate(0,110)" xlink:href="#pin-template"/>
					<use id="connector-RST-pin" transform="translate(0,100)" xlink:href="#pin-template"/>
					<use id="connector-INTB-pin" transform="translate(0,90)" xlink:href="#pin-template"/>
					<use id="connector-INTA-pin" transform="translate(0,80)" xlink:href="#pin-template"/>
					<use id="connector-DA0-pin" transform="translate(0,70)" xlink:href="#pin-template"/>
					<use id="connector-DA1-pin" transform="translate(0,60)" xlink:href="#pin-template"/>
					<use id="connector-DA2-pin" transform="translate(0,50)" xlink:href="#pin-template"/>
					<use id="connector-DA3-pin" transform="translate(0,40)" xlink:href="#pin-template"/>
					<use id="connector-DA4-pin" transform="translate(0,30)" xlink:href="#pin-template"/>
					<use id="connector-DA5-pin" transform="translate(0,20)" xlink:href="#pin-template"/>
					<use id="connector-DA6-pin" transform="translate(0,10)" xlink:href="#pin-template"/>
					<use id="connector-DA7-pin" transform="translate(0,0)" xlink:href="#pin-template"/>
				</g>
				<g transform="translate(10,0)">
					<use id="connector-A0-terminal" transform="translate(0,130)" xlink:href="#terminal-template"/>
					<use id="connector-A1-terminal" transform="translate(0,120)" xlink:href="#terminal-template"/>
					<use id="connector-A2-terminal" transform="translate(0,110)" xlink:href="#terminal-template"/>
					<use id="connector-RST-terminal" transform="translate(0,100)" xlink:href="#terminal-template"/>
					<use id="connector-INTB-terminal" transform="translate(0,90)" xlink:href="#terminal-template"/>
					<use id="connector-INTA-terminal" transform="translate(0,80)" xlink:href="#terminal-template"/>
					<use id="connector-DA0-terminal" transform="translate(0,70)" xlink:href="#terminal-template"/>
					<use id="connector-DA1-terminal" transform="translate(0,60)" xlink:href="#terminal-template"/>
					<use id="connector-DA2-terminal" transform="translate(0,50)" xlink:href="#terminal-template"/>
					<use id="connector-DA3-terminal" transform="translate(0,40)" xlink:href="#terminal-template"/>
					<use id="connector-DA4-terminal" transform="translate(0,30)" xlink:href="#terminal-template"/>
					<use id="connector-DA5-terminal" transform="translate(0,20)" xlink:href="#terminal-template"/>
					<use id="connector-DA6-terminal" transform="translate(0,10)" xlink:href="#terminal-template"/>
					<use id="connector-DA7-terminal" transform="translate(0,0)" xlink:href="#terminal-template"/>
				</g>
				<g fill="#888888" font-family="OCRA" font-size="3" stroke="none" text-anchor="start" transform="translate(-5,-1.5)">
					<text x="0" y="130">A0</text>
					<text x="0" y="120">A1</text>
					<text x="0" y="110">A2</text>
					<text x="0" y="100">RST</text>
					<text x="0" y="90">INTB</text>
					<text x="0" y="80">INTA</text>
					<text x="0" y="70">DA0</text>
					<text x="0" y="60">DA1</text>
					<text x="0" y="50">DA2</text>
					<text x="0" y="40">DA3</text>
					<text x="0" y="30">DA4</text>
					<text x="0" y="20">DA5</text>
					<text x="0" y="10">DA6</text>
					<text x="0" y="0">DA7</text>
				</g>
			</g>
		</g>
	</g>
</svg>