<?xml version="1.0" encoding="UTF-8"?>
<!DOCTYPE svg PUBLIC "-//W3C//DTD SVG 1.1//EN" "http://www.w3.org/Graphics/SVG/1.1/DTD/svg11.dtd">
<svg height="0.95in" version="1.1" viewBox="0 0 245 95" width="2.45in" xmlns="http://www.w3.org/2000/svg" xmlns:xlink="http://www.w3.org/1999/xlink">
	<defs>
		<polyline id="segment-a-template" points="0,0 4,0" stroke-linecap="round"/>
		<polyline id="segment-b-template" points="4,0 4,4" stroke-linecap="round"/>
		<polyline id="segment-c-template" points="4,4 4,8" stroke-linecap="round"/>
		<polyline id="segment-d-template" points="4,8 0,8" stroke-linecap="round"/>
		<polyline id="segment-e-template" points="0,8 0,4" stroke-linecap="round"/>
		<polyline id="segment-f-template" points="0,4 0,0" stroke-linecap="round"/>
		<polyline id="segment-g-template" points="0,4 4,4" stroke-linecap="round"/>
		<circle cx="6" cy="8" id="segment-p-template" r="0.5"/>
		<g fill="none" id="segment-template" stroke="#888888" stroke-width="1">
			<use xlink:href="#segment-a-template"/>
			<use xlink:href="#segment-b-template"/>
			<use xlink:href="#segment-c-template"/>
			<use xlink:href="#segment-d-template"/>
			<use xlink:href="#segment-e-template"/>
			<use xlink:href="#segment-f-template"/>
			<use xlink:href="#segment-g-template"/>
			<use fill="#888888" stroke="none" xlink:href="#segment-p-template"/>
		</g>
		<g id="segment-a-highlight">
			<use xlink:href="#segment-template"/>
			<use stroke="#000000" xlink:href="#segment-a-template"/>
		</g>
		<g id="segment-b-highlight">
			<use xlink:href="#segment-template"/>
			<use stroke="#000000" xlink:href="#segment-b-template"/>
		</g>
		<g id="segment-c-highlight">
			<use xlink:href="#segment-template"/>
			<use stroke="#000000" xlink:href="#segment-c-template"/>
		</g>
		<g id="segment-d-highlight">
			<use xlink:href="#segment-template"/>
			<use stroke="#000000" xlink:href="#segment-d-template"/>
		</g>
		<g id="segment-e-highlight">
			<use xlink:href="#segment-template"/>
			<use stroke="#000000" xlink:href="#segment-e-template"/>
		</g>
		<g id="segment-f-highlight">
			<use xlink:href="#segment-template"/>
			<use stroke="#000000" xlink:href="#segment-f-template"/>
		</g>
		<g id="segment-g-highlight">
			<use xlink:href="#segment-template"/>
			<use stroke="#000000" xlink:href="#segment-g-template"/>
		</g>
		<g id="segment-p-highlight">
			<use xlink:href="#segment-template"/>
			<use fill="#000000" xlink:href="#segment-p-template"/>
		</g>
		<polyline fill="none" id="row-line-template" points="0,0 210,0" stroke="#000000" stroke-width="1"/>
		<polyline fill="none" id="column-line-template" points="0,0 0,60" stroke="#000000" stroke-width="1"/>
		<circle cx="0" cy="0" fill="#000000" id="joint-template" r="2" stroke="none"/>
		<g id="joint-row-template">
			<use transform="translate(0,0)" xlink:href="#joint-template"/>
			<use transform="translate(30,0)" xlink:href="#joint-template"/>
			<use transform="translate(60,0)" xlink:href="#joint-template"/>
			<use transform="translate(90,0)" xlink:href="#joint-template"/>
			<use transform="translate(120,0)" xlink:href="#joint-template"/>
			<use transform="translate(150,0)" xlink:href="#joint-template"/>
			<use transform="translate(180,0)" xlink:href="#joint-template"/>
			<use transform="translate(210,0)" xlink:href="#joint-template"/>
		</g>
		<g id="direction-template">
			<polygon fill="#000000" points="-1,0 1,0 0,2" stroke="none"/>
			<polyline fill="none" points="0,-2 0,0" stroke="#000000" stroke-width="0.5"/>
		</g>
		<g id="led-template">
			<polygon fill="none" points="-4,-5 4,-5 0,5" stroke="#000000" stroke-width="1"/>
			<polyline fill="none" points="0,-10 0,10" stroke="#000000" stroke-width="1"/>
			<polyline fill="none" points="-4,5 4,5" stroke="#000000" stroke-width="1"/>
			<g transform="translate(-3,8)">
				<use transform="translate(0,0) rotate(45)" xlink:href="#direction-template"/>
				<use transform="translate(0,2) rotate(45)" xlink:href="#direction-template"/>
			</g>
		</g>
		<g id="led-row-template">
			<use transform="translate(0,0) rotate(-45)" xlink:href="#led-template"/>
			<use transform="translate(30,0) rotate(-45)" xlink:href="#led-template"/>
			<use transform="translate(60,0) rotate(-45)" xlink:href="#led-template"/>
			<use transform="translate(90,0) rotate(-45)" xlink:href="#led-template"/>
			<use transform="translate(120,0) rotate(-45)" xlink:href="#led-template"/>
			<use transform="translate(150,0) rotate(-45)" xlink:href="#led-template"/>
			<use transform="translate(180,0) rotate(-45)" xlink:href="#led-template"/>
			<use transform="translate(210,0) rotate(-45)" xlink:href="#led-template"/>
		</g>
		<polyline fill="none" id="pin-template" points="-10,0 10,0" stroke="#888888" stroke-width="1"/>
		<circle cx="0" cy="0" id="terminal-template" opacity="0" r="0.001"/>
	</defs>
	<g id="schematic">
		<g transform="translate(35,15)">
			<use transform="translate(0,0)" xlink:href="#column-line-template"/>
			<use transform="translate(30,0)" xlink:href="#column-line-template"/>
			<use transform="translate(60,0)" xlink:href="#column-line-template"/>
			<use transform="translate(90,0)" xlink:href="#column-line-template"/>
			<use transform="translate(120,0)" xlink:href="#column-line-template"/>
			<use transform="translate(150,0)" xlink:href="#column-line-template"/>
			<use transform="translate(180,0)" xlink:href="#column-line-template"/>
			<use transform="translate(210,0)" xlink:href="#column-line-template"/>
		</g>
		<g transform="translate(20,0)">
			<use transform="translate(0,0)" xlink:href="#row-line-template"/>
			<use transform="translate(0,30)" xlink:href="#row-line-template"/>
			<use transform="translate(0,60)" xlink:href="#row-line-template"/>
		</g>
		<g transform="translate(27.5,7.5)">
			<use transform="translate(0,0)" xlink:href="#led-row-template"/>
			<use transform="translate(0,30)" xlink:href="#led-row-template"/>
			<use transform="translate(0,60)" xlink:href="#led-row-template"/>
		</g>
		<g transform="translate(35,85)">
			<use id="connector-A-pin" transform="translate(0,0) rotate(90)" xlink:href="#pin-template"/>
			<use id="connector-B-pin" transform="translate(30,0) rotate(90)" xlink:href="#pin-template"/>
			<use id="connector-C-pin" transform="translate(60,0) rotate(90)" xlink:href="#pin-template"/>
			<use id="connector-D-pin" transform="translate(90,0) rotate(90)" xlink:href="#pin-template"/>
			<use id="connector-E-pin" transform="translate(120,0) rotate(90)" xlink:href="#pin-template"/>
			<use id="connector-F-pin" transform="translate(150,0) rotate(90)" xlink:href="#pin-template"/>
			<use id="connector-G-pin" transform="translate(180,0) rotate(90)" xlink:href="#pin-template"/>
			<use id="connector-P-pin" transform="translate(210,0) rotate(90)" xlink:href="#pin-template"/>
		</g>
		<g transform="translate(10,0)">
			<use id="connector-1-pin" transform="translate(0,0)" xlink:href="#pin-template"/>
			<use id="connector-2-pin" transform="translate(0,30)" xlink:href="#pin-template"/>
			<use id="connector-3-pin" transform="translate(0,60)" xlink:href="#pin-template"/>
			<use id="connector-NC-pin" transform="translate(0,0)" xlink:href="#pin-template"/>
		</g>
		<g transform="translate(35,95)">
			<use id="connector-A-terminal" transform="translate(0,0)" xlink:href="#terminal-template"/>
			<use id="connector-B-terminal" transform="translate(30,0)" xlink:href="#terminal-template"/>
			<use id="connector-C-terminal" transform="translate(60,0)" xlink:href="#terminal-template"/>
			<use id="connector-D-terminal" transform="translate(90,0)" xlink:href="#terminal-template"/>
			<use id="connector-E-terminal" transform="translate(120,0)" xlink:href="#terminal-template"/>
			<use id="connector-F-terminal" transform="translate(150,0)" xlink:href="#terminal-template"/>
			<use id="connector-G-terminal" transform="translate(180,0)" xlink:href="#terminal-template"/>
			<use id="connector-P-terminal" transform="translate(210,0)" xlink:href="#terminal-template"/>
		</g>
		<g transform="translate(0,0)">
			<use id="connector-1-terminal" transform="translate(0,0)" xlink:href="#terminal-template"/>
			<use id="connector-2-terminal" transform="translate(0,30)" xlink:href="#terminal-template"/>
			<use id="connector-3-terminal" transform="translate(0,60)" xlink:href="#terminal-template"/>
			<use id="connector-NC-terminal" transform="translate(0,0)" xlink:href="#terminal-template"/>
		</g>
		<g transform="translate(20,0)">
			<use transform="translate(0,0)" xlink:href="#joint-row-template"/>
			<use transform="translate(0,30)" xlink:href="#joint-row-template"/>
			<use transform="translate(0,60)" xlink:href="#joint-row-template"/>
		</g>
		<g transform="translate(35,15)">
			<use transform="translate(0,0)" xlink:href="#joint-row-template"/>
			<use transform="translate(0,30)" xlink:href="#joint-row-template"/>
			<use transform="translate(0,60)" xlink:href="#joint-row-template"/>
		</g>
		<g transform="translate(20,75)">
			<use transform="translate(0,0)" xlink:href="#segment-a-highlight"/>
			<use transform="translate(30,0)" xlink:href="#segment-b-highlight"/>
			<use transform="translate(60,0)" xlink:href="#segment-c-highlight"/>
			<use transform="translate(90,0)" xlink:href="#segment-d-highlight"/>
			<use transform="translate(120,0)" xlink:href="#segment-e-highlight"/>
			<use transform="translate(150,0)" xlink:href="#segment-f-highlight"/>
			<use transform="translate(180,0)" xlink:href="#segment-g-highlight"/>
			<use transform="translate(210,0)" xlink:href="#segment-p-highlight"/>
		</g>
		<g fill="#888888" font-family="OCRA" font-size="8" stroke="none">
			<g text-anchor="end" transform="translate(33,93)">
				<text transform="translate(0,0)">11</text>
				<text transform="translate(30,0)">7</text>
				<text transform="translate(60,0)">4</text>
				<text transform="translate(90,0)">2</text>
				<text transform="translate(120,0)">1</text>
				<text transform="translate(150,0)">10</text>
				<text transform="translate(180,0)">5</text>
				<text transform="translate(210,0)">3</text>
			</g>
			<g text-anchor="start" transform="translate(2,10)">
				<text transform="translate(0,0)">8</text>
				<text transform="translate(0,30)">9</text>
				<text transform="translate(0,60)">12</text>
				<text transform="translate(0,0)" xml:space="preserve"/>
			</g>
		</g>
	</g>
</svg>