<?xml version="1.0" encoding="UTF-8"?>
<!DOCTYPE svg PUBLIC "-//W3C//DTD SVG 1.1//EN" "http://www.w3.org/Graphics/SVG/1.1/DTD/svg11.dtd">
<svg height="0.65in" version="1.1" viewBox="0 0 515 65" width="5.15in" xmlns="http://www.w3.org/2000/svg" xmlns:xlink="http://www.w3.org/1999/xlink">
	<defs>
		<polyline id="segment-al-template" points="0,0 4,0" stroke-linecap="round"/>
		<polyline id="segment-ar-template" points="4,0 8,0" stroke-linecap="round"/>
		<polyline id="segment-b-template" points="8,0 8,4" stroke-linecap="round"/>
		<polyline id="segment-c-template" points="8,4 8,8" stroke-linecap="round"/>
		<polyline id="segment-dr-template" points="8,8 4,8" stroke-linecap="round"/>
		<polyline id="segment-dl-template" points="4,8 0,8" stroke-linecap="round"/>
		<polyline id="segment-e-template" points="0,8 0,4" stroke-linecap="round"/>
		<polyline id="segment-f-template" points="0,4 0,0" stroke-linecap="round"/>
		<polyline id="segment-gl-template" points="0,4 4,4" stroke-linecap="round"/>
		<polyline id="segment-gr-template" points="4,4 8,4" stroke-linecap="round"/>
		<polyline id="segment-up-template" points="4,4 4,0" stroke-linecap="round"/>
		<polyline id="segment-dn-template" points="4,4 4,8" stroke-linecap="round"/>
		<polyline id="segment-upr-template" points="4,4 8,0" stroke-linecap="round"/>
		<polyline id="segment-dnl-template" points="4,4 0,8" stroke-linecap="round"/>
		<polyline id="segment-upl-template" points="4,4 0,0" stroke-linecap="round"/>
		<polyline id="segment-dnr-template" points="4,4 8,8" stroke-linecap="round"/>
		<circle cx="10" cy="8" id="segment-p-template" r="0.5"/>
		<g fill="none" id="segment-template" stroke="#888888" stroke-width="1">
			<use xlink:href="#segment-al-template"/>
			<use xlink:href="#segment-ar-template"/>
			<use xlink:href="#segment-b-template"/>
			<use xlink:href="#segment-c-template"/>
			<use xlink:href="#segment-dr-template"/>
			<use xlink:href="#segment-dl-template"/>
			<use xlink:href="#segment-e-template"/>
			<use xlink:href="#segment-f-template"/>
			<use xlink:href="#segment-gl-template"/>
			<use xlink:href="#segment-gr-template"/>
			<use xlink:href="#segment-up-template"/>
			<use xlink:href="#segment-dn-template"/>
			<use xlink:href="#segment-upr-template"/>
			<use xlink:href="#segment-dnl-template"/>
			<use xlink:href="#segment-upl-template"/>
			<use xlink:href="#segment-dnr-template"/>
			<use fill="#888888" stroke="none" xlink:href="#segment-p-template"/>
		</g>
		<g id="segment-al-highlight">
			<use xlink:href="#segment-template"/>
			<use stroke="#000000" xlink:href="#segment-al-template"/>
		</g>
		<g id="segment-ar-highlight">
			<use xlink:href="#segment-template"/>
			<use stroke="#000000" xlink:href="#segment-ar-template"/>
		</g>
		<g id="segment-b-highlight">
			<use xlink:href="#segment-template"/>
			<use stroke="#000000" xlink:href="#segment-b-template"/>
		</g>
		<g id="segment-c-highlight">
			<use xlink:href="#segment-template"/>
			<use stroke="#000000" xlink:href="#segment-c-template"/>
		</g>
		<g id="segment-dr-highlight">
			<use xlink:href="#segment-template"/>
			<use stroke="#000000" xlink:href="#segment-dr-template"/>
		</g>
		<g id="segment-dl-highlight">
			<use xlink:href="#segment-template"/>
			<use stroke="#000000" xlink:href="#segment-dl-template"/>
		</g>
		<g id="segment-e-highlight">
			<use xlink:href="#segment-template"/>
			<use stroke="#000000" xlink:href="#segment-e-template"/>
		</g>
		<g id="segment-f-highlight">
			<use xlink:href="#segment-template"/>
			<use stroke="#000000" xlink:href="#segment-f-template"/>
		</g>
		<g id="segment-gl-highlight">
			<use xlink:href="#segment-template"/>
			<use stroke="#000000" xlink:href="#segment-gl-template"/>
		</g>
		<g id="segment-gr-highlight">
			<use xlink:href="#segment-template"/>
			<use stroke="#000000" xlink:href="#segment-gr-template"/>
		</g>
		<g id="segment-up-highlight">
			<use xlink:href="#segment-template"/>
			<use stroke="#000000" xlink:href="#segment-up-template"/>
		</g>
		<g id="segment-dn-highlight">
			<use xlink:href="#segment-template"/>
			<use stroke="#000000" xlink:href="#segment-dn-template"/>
		</g>
		<g id="segment-upr-highlight">
			<use xlink:href="#segment-template"/>
			<use stroke="#000000" xlink:href="#segment-upr-template"/>
		</g>
		<g id="segment-dnl-highlight">
			<use xlink:href="#segment-template"/>
			<use stroke="#000000" xlink:href="#segment-dnl-template"/>
		</g>
		<g id="segment-upl-highlight">
			<use xlink:href="#segment-template"/>
			<use stroke="#000000" xlink:href="#segment-upl-template"/>
		</g>
		<g id="segment-dnr-highlight">
			<use xlink:href="#segment-template"/>
			<use stroke="#000000" xlink:href="#segment-dnr-template"/>
		</g>
		<g id="segment-p-highlight">
			<use xlink:href="#segment-template"/>
			<use fill="#000000" xlink:href="#segment-p-template"/>
		</g>
		<polyline fill="none" id="row-line-template" points="0,0 480,0" stroke="#000000" stroke-width="1"/>
		<polyline fill="none" id="column-line-template" points="0,0 0,30" stroke="#000000" stroke-width="1"/>
		<circle cx="0" cy="0" fill="#000000" id="joint-template" r="2" stroke="none"/>
		<g id="joint-row-template">
			<use transform="translate(0,0)" xlink:href="#joint-template"/>
			<use transform="translate(30,0)" xlink:href="#joint-template"/>
			<use transform="translate(60,0)" xlink:href="#joint-template"/>
			<use transform="translate(90,0)" xlink:href="#joint-template"/>
			<use transform="translate(120,0)" xlink:href="#joint-template"/>
			<use transform="translate(150,0)" xlink:href="#joint-template"/>
			<use transform="translate(180,0)" xlink:href="#joint-template"/>
			<use transform="translate(210,0)" xlink:href="#joint-template"/>
			<use transform="translate(240,0)" xlink:href="#joint-template"/>
			<use transform="translate(270,0)" xlink:href="#joint-template"/>
			<use transform="translate(300,0)" xlink:href="#joint-template"/>
			<use transform="translate(330,0)" xlink:href="#joint-template"/>
			<use transform="translate(360,0)" xlink:href="#joint-template"/>
			<use transform="translate(390,0)" xlink:href="#joint-template"/>
			<use transform="translate(420,0)" xlink:href="#joint-template"/>
			<use transform="translate(450,0)" xlink:href="#joint-template"/>
			<use transform="translate(480,0)" xlink:href="#joint-template"/>
		</g>
		<g id="direction-template">
			<polygon fill="#000000" points="-1,0 1,0 0,2" stroke="none"/>
			<polyline fill="none" points="0,-2 0,0" stroke="#000000" stroke-width="0.5"/>
		</g>
		<g id="led-template">
			<polygon fill="none" points="-4,-5 4,-5 0,5" stroke="#000000" stroke-width="1"/>
			<polyline fill="none" points="0,-10 0,10" stroke="#000000" stroke-width="1"/>
			<polyline fill="none" points="-4,5 4,5" stroke="#000000" stroke-width="1"/>
			<g transform="translate(-3,8)">
				<use transform="translate(0,0) rotate(45)" xlink:href="#direction-template"/>
				<use transform="translate(0,2) rotate(45)" xlink:href="#direction-template"/>
			</g>
		</g>
		<g id="led-row-template">
			<use transform="translate(0,0) rotate(-45)" xlink:href="#led-template"/>
			<use transform="translate(30,0) rotate(-45)" xlink:href="#led-template"/>
			<use transform="translate(60,0) rotate(-45)" xlink:href="#led-template"/>
			<use transform="translate(90,0) rotate(-45)" xlink:href="#led-template"/>
			<use transform="translate(120,0) rotate(-45)" xlink:href="#led-template"/>
			<use transform="translate(150,0) rotate(-45)" xlink:href="#led-template"/>
			<use transform="translate(180,0) rotate(-45)" xlink:href="#led-template"/>
			<use transform="translate(210,0) rotate(-45)" xlink:href="#led-template"/>
			<use transform="translate(240,0) rotate(-45)" xlink:href="#led-template"/>
			<use transform="translate(270,0) rotate(-45)" xlink:href="#led-template"/>
			<use transform="translate(300,0) rotate(-45)" xlink:href="#led-template"/>
			<use transform="translate(330,0) rotate(-45)" xlink:href="#led-template"/>
			<use transform="translate(360,0) rotate(-45)" xlink:href="#led-template"/>
			<use transform="translate(390,0) rotate(-45)" xlink:href="#led-template"/>
			<use transform="translate(420,0) rotate(-45)" xlink:href="#led-template"/>
			<use transform="translate(450,0) rotate(-45)" xlink:href="#led-template"/>
			<use transform="translate(480,0) rotate(-45)" xlink:href="#led-template"/>
		</g>
		<polyline fill="none" id="pin-template" points="-10,0 10,0" stroke="#888888" stroke-width="1"/>
		<circle cx="0" cy="0" id="terminal-template" opacity="0" r="0.001"/>
	</defs>
	<g id="schematic">
		<g transform="translate(35,15)">
			<use transform="translate(0,0)" xlink:href="#column-line-template"/>
			<use transform="translate(30,0)" xlink:href="#column-line-template"/>
			<use transform="translate(60,0)" xlink:href="#column-line-template"/>
			<use transform="translate(90,0)" xlink:href="#column-line-template"/>
			<use transform="translate(120,0)" xlink:href="#column-line-template"/>
			<use transform="translate(150,0)" xlink:href="#column-line-template"/>
			<use transform="translate(180,0)" xlink:href="#column-line-template"/>
			<use transform="translate(210,0)" xlink:href="#column-line-template"/>
			<use transform="translate(240,0)" xlink:href="#column-line-template"/>
			<use transform="translate(270,0)" xlink:href="#column-line-template"/>
			<use transform="translate(300,0)" xlink:href="#column-line-template"/>
			<use transform="translate(330,0)" xlink:href="#column-line-template"/>
			<use transform="translate(360,0)" xlink:href="#column-line-template"/>
			<use transform="translate(390,0)" xlink:href="#column-line-template"/>
			<use transform="translate(420,0)" xlink:href="#column-line-template"/>
			<use transform="translate(450,0)" xlink:href="#column-line-template"/>
			<use transform="translate(480,0)" xlink:href="#column-line-template"/>
		</g>
		<g transform="translate(20,0)">
			<use transform="translate(0,0)" xlink:href="#row-line-template"/>
			<use transform="translate(0,30)" xlink:href="#row-line-template"/>
		</g>
		<g transform="translate(27.5,7.5)">
			<use transform="translate(0,0)" xlink:href="#led-row-template"/>
			<use transform="translate(0,30)" xlink:href="#led-row-template"/>
		</g>
		<g transform="translate(35,55)">
			<use id="connector-AL-pin" transform="translate(0,0) rotate(90)" xlink:href="#pin-template"/>
			<use id="connector-AR-pin" transform="translate(30,0) rotate(90)" xlink:href="#pin-template"/>
			<use id="connector-B-pin" transform="translate(60,0) rotate(90)" xlink:href="#pin-template"/>
			<use id="connector-C-pin" transform="translate(90,0) rotate(90)" xlink:href="#pin-template"/>
			<use id="connector-DR-pin" transform="translate(120,0) rotate(90)" xlink:href="#pin-template"/>
			<use id="connector-DL-pin" transform="translate(150,0) rotate(90)" xlink:href="#pin-template"/>
			<use id="connector-E-pin" transform="translate(180,0) rotate(90)" xlink:href="#pin-template"/>
			<use id="connector-F-pin" transform="translate(210,0) rotate(90)" xlink:href="#pin-template"/>
			<use id="connector-GL-pin" transform="translate(240,0) rotate(90)" xlink:href="#pin-template"/>
			<use id="connector-GR-pin" transform="translate(270,0) rotate(90)" xlink:href="#pin-template"/>
			<use id="connector-UP-pin" transform="translate(300,0) rotate(90)" xlink:href="#pin-template"/>
			<use id="connector-DN-pin" transform="translate(330,0) rotate(90)" xlink:href="#pin-template"/>
			<use id="connector-UPR-pin" transform="translate(360,0) rotate(90)" xlink:href="#pin-template"/>
			<use id="connector-DNL-pin" transform="translate(390,0) rotate(90)" xlink:href="#pin-template"/>
			<use id="connector-UPL-pin" transform="translate(420,0) rotate(90)" xlink:href="#pin-template"/>
			<use id="connector-DNR-pin" transform="translate(450,0) rotate(90)" xlink:href="#pin-template"/>
			<use id="connector-P-pin" transform="translate(480,0) rotate(90)" xlink:href="#pin-template"/>
		</g>
		<g transform="translate(10,0)">
			<use id="connector-1-pin" transform="translate(0,0)" xlink:href="#pin-template"/>
			<use id="connector-2-pin" transform="translate(0,30)" xlink:href="#pin-template"/>
			<use id="connector-NC-pin" transform="translate(0,0)" xlink:href="#pin-template"/>
		</g>
		<g transform="translate(35,65)">
			<use id="connector-AL-terminal" transform="translate(0,0)" xlink:href="#terminal-template"/>
			<use id="connector-AR-terminal" transform="translate(30,0)" xlink:href="#terminal-template"/>
			<use id="connector-B-terminal" transform="translate(60,0)" xlink:href="#terminal-template"/>
			<use id="connector-C-terminal" transform="translate(90,0)" xlink:href="#terminal-template"/>
			<use id="connector-DR-terminal" transform="translate(120,0)" xlink:href="#terminal-template"/>
			<use id="connector-DL-terminal" transform="translate(150,0)" xlink:href="#terminal-template"/>
			<use id="connector-E-terminal" transform="translate(180,0)" xlink:href="#terminal-template"/>
			<use id="connector-F-terminal" transform="translate(210,0)" xlink:href="#terminal-template"/>
			<use id="connector-GL-terminal" transform="translate(240,0)" xlink:href="#terminal-template"/>
			<use id="connector-GR-terminal" transform="translate(270,0)" xlink:href="#terminal-template"/>
			<use id="connector-UP-terminal" transform="translate(300,0)" xlink:href="#terminal-template"/>
			<use id="connector-DN-terminal" transform="translate(330,0)" xlink:href="#terminal-template"/>
			<use id="connector-UPR-terminal" transform="translate(360,0)" xlink:href="#terminal-template"/>
			<use id="connector-DNL-terminal" transform="translate(390,0)" xlink:href="#terminal-template"/>
			<use id="connector-UPL-terminal" transform="translate(420,0)" xlink:href="#terminal-template"/>
			<use id="connector-DNR-terminal" transform="translate(450,0)" xlink:href="#terminal-template"/>
			<use id="connector-P-terminal" transform="translate(480,0)" xlink:href="#terminal-template"/>
		</g>
		<g transform="translate(0,0)">
			<use id="connector-1-terminal" transform="translate(0,0)" xlink:href="#terminal-template"/>
			<use id="connector-2-terminal" transform="translate(0,30)" xlink:href="#terminal-template"/>
			<use id="connector-NC-terminal" transform="translate(0,0)" xlink:href="#terminal-template"/>
		</g>
		<g transform="translate(20,0)">
			<use transform="translate(0,0)" xlink:href="#joint-row-template"/>
			<use transform="translate(0,30)" xlink:href="#joint-row-template"/>
		</g>
		<g transform="translate(35,15)">
			<use transform="translate(0,0)" xlink:href="#joint-row-template"/>
			<use transform="translate(0,30)" xlink:href="#joint-row-template"/>
		</g>
		<g transform="translate(16,45)">
			<use transform="translate(0,0)" xlink:href="#segment-al-highlight"/>
			<use transform="translate(30,0)" xlink:href="#segment-ar-highlight"/>
			<use transform="translate(60,0)" xlink:href="#segment-b-highlight"/>
			<use transform="translate(90,0)" xlink:href="#segment-c-highlight"/>
			<use transform="translate(120,0)" xlink:href="#segment-dr-highlight"/>
			<use transform="translate(150,0)" xlink:href="#segment-dl-highlight"/>
			<use transform="translate(180,0)" xlink:href="#segment-e-highlight"/>
			<use transform="translate(210,0)" xlink:href="#segment-f-highlight"/>
			<use transform="translate(240,0)" xlink:href="#segment-gl-highlight"/>
			<use transform="translate(270,0)" xlink:href="#segment-gr-highlight"/>
			<use transform="translate(300,0)" xlink:href="#segment-up-highlight"/>
			<use transform="translate(330,0)" xlink:href="#segment-dn-highlight"/>
			<use transform="translate(360,0)" xlink:href="#segment-upr-highlight"/>
			<use transform="translate(390,0)" xlink:href="#segment-dnl-highlight"/>
			<use transform="translate(420,0)" xlink:href="#segment-upl-highlight"/>
			<use transform="translate(450,0)" xlink:href="#segment-dnr-highlight"/>
			<use transform="translate(480,0)" xlink:href="#segment-p-highlight"/>
		</g>
		<g fill="#888888" font-family="OCRA" font-size="8" stroke="none">
			<g text-anchor="end" transform="translate(33,63)">
				<text transform="translate(0,0)">13</text>
				<text transform="translate(30,0)">11</text>
				<text transform="translate(60,0)">17</text>
				<text transform="translate(90,0)">8</text>
				<text transform="translate(120,0)">9</text>
				<text transform="translate(150,0)">1</text>
				<text transform="translate(180,0)">6</text>
				<text transform="translate(210,0)">15</text>
				<text transform="translate(240,0)">20</text>
				<text transform="translate(270,0)">16</text>
				<text transform="translate(300,0)">18</text>
				<text transform="translate(330,0)">3</text>
				<text transform="translate(360,0)">12</text>
				<text transform="translate(390,0)">2</text>
				<text transform="translate(420,0)">19</text>
				<text transform="translate(450,0)">7</text>
				<text transform="translate(480,0)">5</text>
			</g>
			<g text-anchor="start" transform="translate(2,10)">
				<text transform="translate(0,0)">10</text>
				<text transform="translate(0,30)">4</text>
				<text transform="translate(0,0)" xml:space="preserve"/>
			</g>
		</g>
	</g>
</svg>