<?xml version="1.0" encoding="UTF-8"?>
<!DOCTYPE svg PUBLIC "-//W3C//DTD SVG 1.1//EN" "http://www.w3.org/Graphics/SVG/1.1/DTD/svg11.dtd">
<svg height="0.3in" version="1.1" viewBox="0 0 10 30" width="0.1in" xmlns="http://www.w3.org/2000/svg" xmlns:xlink="http://www.w3.org/1999/xlink">
	<defs>
		<g id="direction-template">
			<polygon fill="#000000" points="-1,0 1,0 0,2" stroke="none"/>
			<polyline fill="none" points="0,-2 0,0" stroke="#000000" stroke-width="0.5"/>
		</g>
		<g id="led-template">
			<polygon fill="none" points="-4,-5 4,-5 0,5" stroke="#000000" stroke-width="1"/>
			<polyline fill="none" points="0,-5 0,5" stroke="#000000" stroke-width="1"/>
			<polyline fill="none" points="-4,5 4,5" stroke="#000000" stroke-width="1"/>
			<g transform="translate(3,8)">
				<use transform="translate(0,0) rotate(-45)" xlink:href="#direction-template"/>
				<use transform="translate(0,2) rotate(-45)" xlink:href="#direction-template"/>
			</g>
		</g>
		<polyline fill="none" id="pin-template" points="0,-5 0,5" stroke="#888888" stroke-width="1"/>
		<circle cx="0" cy="0" id="terminal-template" opacity="0" r="0.001"/>
	</defs>
	<g id="schematic">
		<g transform="translate(5,0)">
			<g transform="translate(0,15)">
				<use transform="translate(0,0)" xlink:href="#led-template"/>
			</g>
			<g transform="translate(0,25)">
				<use id="connector-1--pin" transform="translate(0,0)" xlink:href="#pin-template"/>
			</g>
			<g transform="translate(0,30)">
				<use id="connector-1--terminal" transform="translate(0,0)" xlink:href="#terminal-template"/>
			</g>
			<g transform="translate(0,5)">
				<use id="connector-1+-pin" transform="translate(0,0)" xlink:href="#pin-template"/>
			</g>
			<g transform="translate(0,0)">
				<use id="connector-1+-terminal" transform="translate(0,0)" xlink:href="#terminal-template"/>
			</g>
		</g>
	</g>
</svg>