<?xml version="1.0" encoding="UTF-8"?>
<!DOCTYPE svg PUBLIC "-//W3C//DTD SVG 1.1//EN" "http://www.w3.org/Graphics/SVG/1.1/DTD/svg11.dtd">
<svg height="1.1in" version="1.1" viewBox="0 0 30 110" width="0.3in" xmlns="http://www.w3.org/2000/svg" xmlns:xlink="http://www.w3.org/1999/xlink">
	<defs>
		<polyline fill="none" id="male-direction-template" points="0,-5 10,0 0,5 10,0 0,0" stroke="#000000" stroke-width="1"/>
		<polyline fill="none" id="female-direction-template" points="10,-5 0,0 10,5" stroke="#000000" stroke-width="1"/>
		<polyline fill="none" id="pin-template" points="0,0 20,0" stroke="#888888" stroke-width="1"/>
		<circle cx="0" cy="0" id="terminal-template" opacity="0" r="0.001"/>
	</defs>
	<g id="schematic">
		<g transform="translate(20,5)">
			<use transform="translate(0,0)" xlink:href="#male-direction-template"/>
			<use transform="translate(0,10)" xlink:href="#male-direction-template"/>
			<use transform="translate(0,20)" xlink:href="#male-direction-template"/>
			<use transform="translate(0,30)" xlink:href="#male-direction-template"/>
			<use transform="translate(0,40)" xlink:href="#male-direction-template"/>
			<use transform="translate(0,50)" xlink:href="#male-direction-template"/>
			<use transform="translate(0,60)" xlink:href="#male-direction-template"/>
			<use transform="translate(0,70)" xlink:href="#male-direction-template"/>
			<use transform="translate(0,80)" xlink:href="#male-direction-template"/>
			<use transform="translate(0,90)" xlink:href="#male-direction-template"/>
			<use transform="translate(0,100)" xlink:href="#male-direction-template"/>
		</g>
		<g transform="translate(0,5)">
			<use id="connector-R0C0-pin" transform="translate(0,0)" xlink:href="#pin-template"/>
			<use id="connector-R0C1-pin" transform="translate(0,10)" xlink:href="#pin-template"/>
			<use id="connector-R0C2-pin" transform="translate(0,20)" xlink:href="#pin-template"/>
			<use id="connector-R0C3-pin" transform="translate(0,30)" xlink:href="#pin-template"/>
			<use id="connector-R0C4-pin" transform="translate(0,40)" xlink:href="#pin-template"/>
			<use id="connector-R0C5-pin" transform="translate(0,50)" xlink:href="#pin-template"/>
			<use id="connector-R0C6-pin" transform="translate(0,60)" xlink:href="#pin-template"/>
			<use id="connector-R0C7-pin" transform="translate(0,70)" xlink:href="#pin-template"/>
			<use id="connector-R0C8-pin" transform="translate(0,80)" xlink:href="#pin-template"/>
			<use id="connector-R0C9-pin" transform="translate(0,90)" xlink:href="#pin-template"/>
			<use id="connector-R0C10-pin" transform="translate(0,100)" xlink:href="#pin-template"/>
		</g>
		<g transform="translate(0,5)">
			<use id="connector-R0C0-terminal" transform="translate(0,0)" xlink:href="#terminal-template"/>
			<use id="connector-R0C1-terminal" transform="translate(0,10)" xlink:href="#terminal-template"/>
			<use id="connector-R0C2-terminal" transform="translate(0,20)" xlink:href="#terminal-template"/>
			<use id="connector-R0C3-terminal" transform="translate(0,30)" xlink:href="#terminal-template"/>
			<use id="connector-R0C4-terminal" transform="translate(0,40)" xlink:href="#terminal-template"/>
			<use id="connector-R0C5-terminal" transform="translate(0,50)" xlink:href="#terminal-template"/>
			<use id="connector-R0C6-terminal" transform="translate(0,60)" xlink:href="#terminal-template"/>
			<use id="connector-R0C7-terminal" transform="translate(0,70)" xlink:href="#terminal-template"/>
			<use id="connector-R0C8-terminal" transform="translate(0,80)" xlink:href="#terminal-template"/>
			<use id="connector-R0C9-terminal" transform="translate(0,90)" xlink:href="#terminal-template"/>
			<use id="connector-R0C10-terminal" transform="translate(0,100)" xlink:href="#terminal-template"/>
		</g>
	</g>
</svg>