<?xml version="1.0" encoding="UTF-8"?>
<!DOCTYPE svg PUBLIC "-//W3C//DTD SVG 1.1//EN" "http://www.w3.org/Graphics/SVG/1.1/DTD/svg11.dtd">
<svg height="0.1in" version="1.1" viewBox="0 0 30 10" width="0.3in" xmlns="http://www.w3.org/2000/svg" xmlns:xlink="http://www.w3.org/1999/xlink">
	<defs>
		<polyline fill="none" id="male-direction-template" points="0,-5 10,0 0,5 10,0 0,0" stroke="#000000" stroke-width="1"/>
		<polyline fill="none" id="female-direction-template" points="10,-5 0,0 10,5" stroke="#000000" stroke-width="1"/>
		<polyline fill="none" id="pin-template" points="0,0 20,0" stroke="#888888" stroke-width="1"/>
		<circle cx="0" cy="0" id="terminal-template" opacity="0" r="0.001"/>
	</defs>
	<g id="schematic">
		<g transform="translate(20,5)">
			<use transform="translate(0,0)" xlink:href="#female-direction-template"/>
		</g>
		<g transform="translate(0,5)">
			<use id="connector-R0C0-pin" transform="translate(0,0)" xlink:href="#pin-template"/>
		</g>
		<g transform="translate(0,5)">
			<use id="connector-R0C0-terminal" transform="translate(0,0)" xlink:href="#terminal-template"/>
		</g>
	</g>
</svg>