<?xml version="1.0" encoding="UTF-8"?>
<!DOCTYPE svg PUBLIC "-//W3C//DTD SVG 1.1//EN" "http://www.w3.org/Graphics/SVG/1.1/DTD/svg11.dtd">
<svg height="7.25in" version="1.1" viewBox="0 0 725 725" width="7.25in" xmlns="http://www.w3.org/2000/svg" xmlns:xlink="http://www.w3.org/1999/xlink">
	<defs>
		<polyline fill="none" id="row-line-template" points="0,0 690,0" stroke="#000000" stroke-width="1"/>
		<polyline fill="none" id="column-line-template" points="0,0 0,690" stroke="#000000" stroke-width="1"/>
		<circle cx="0" cy="0" fill="#000000" id="joint-template" r="2" stroke="none"/>
		<g id="joint-row-template">
			<use transform="translate(0,0)" xlink:href="#joint-template"/>
			<use transform="translate(30,0)" xlink:href="#joint-template"/>
			<use transform="translate(60,0)" xlink:href="#joint-template"/>
			<use transform="translate(90,0)" xlink:href="#joint-template"/>
			<use transform="translate(120,0)" xlink:href="#joint-template"/>
			<use transform="translate(150,0)" xlink:href="#joint-template"/>
			<use transform="translate(180,0)" xlink:href="#joint-template"/>
			<use transform="translate(210,0)" xlink:href="#joint-template"/>
			<use transform="translate(240,0)" xlink:href="#joint-template"/>
			<use transform="translate(270,0)" xlink:href="#joint-template"/>
			<use transform="translate(300,0)" xlink:href="#joint-template"/>
			<use transform="translate(330,0)" xlink:href="#joint-template"/>
			<use transform="translate(360,0)" xlink:href="#joint-template"/>
			<use transform="translate(390,0)" xlink:href="#joint-template"/>
			<use transform="translate(420,0)" xlink:href="#joint-template"/>
			<use transform="translate(450,0)" xlink:href="#joint-template"/>
			<use transform="translate(480,0)" xlink:href="#joint-template"/>
			<use transform="translate(510,0)" xlink:href="#joint-template"/>
			<use transform="translate(540,0)" xlink:href="#joint-template"/>
			<use transform="translate(570,0)" xlink:href="#joint-template"/>
			<use transform="translate(600,0)" xlink:href="#joint-template"/>
			<use transform="translate(630,0)" xlink:href="#joint-template"/>
			<use transform="translate(660,0)" xlink:href="#joint-template"/>
			<use transform="translate(690,0)" xlink:href="#joint-template"/>
		</g>
		<g id="direction-template">
			<polygon fill="#000000" points="-1,0 1,0 0,2" stroke="none"/>
			<polyline fill="none" points="0,-2 0,0" stroke="#000000" stroke-width="0.5"/>
		</g>
		<polygon id="led-color-template" points="-4,-5 4,-5 0,5" stroke="#000000" stroke-width="1"/>
		<g id="led-template">
			<polyline fill="none" points="0,-10 0,10" stroke="#000000" stroke-width="1"/>
			<polyline fill="none" points="-4,5 4,5" stroke="#000000" stroke-width="1"/>
			<g transform="translate(-3,8)">
				<use transform="translate(0,0) rotate(45)" xlink:href="#direction-template"/>
				<use transform="translate(0,2) rotate(45)" xlink:href="#direction-template"/>
			</g>
		</g>
		<g id="led-r-template">
			<use xlink:href="#led-template"/>
			<use fill="none" xlink:href="#led-color-template"/>
		</g>
		<g id="led-g-template">
			<use xlink:href="#led-template"/>
			<use fill="#FFFFFF" xlink:href="#led-color-template"/>
		</g>
		<g id="led-b-template">
			<use xlink:href="#led-template"/>
			<use fill="#000000" xlink:href="#led-color-template"/>
		</g>
		<g id="led-rgb-template">
			<use xlink:href="#led-r-template"/>
			<use transform="translate(30,0)" xlink:href="#led-g-template"/>
			<use transform="translate(60,0)" xlink:href="#led-b-template"/>
		</g>
		<g id="led-row-template">
			<use transform="translate(0,0) rotate(-45)" xlink:href="#led-r-template"/>
			<use transform="translate(30,0) rotate(-45)" xlink:href="#led-g-template"/>
			<use transform="translate(60,0) rotate(-45)" xlink:href="#led-b-template"/>
			<use transform="translate(90,0) rotate(-45)" xlink:href="#led-r-template"/>
			<use transform="translate(120,0) rotate(-45)" xlink:href="#led-g-template"/>
			<use transform="translate(150,0) rotate(-45)" xlink:href="#led-b-template"/>
			<use transform="translate(180,0) rotate(-45)" xlink:href="#led-r-template"/>
			<use transform="translate(210,0) rotate(-45)" xlink:href="#led-g-template"/>
			<use transform="translate(240,0) rotate(-45)" xlink:href="#led-b-template"/>
			<use transform="translate(270,0) rotate(-45)" xlink:href="#led-r-template"/>
			<use transform="translate(300,0) rotate(-45)" xlink:href="#led-g-template"/>
			<use transform="translate(330,0) rotate(-45)" xlink:href="#led-b-template"/>
			<use transform="translate(360,0) rotate(-45)" xlink:href="#led-r-template"/>
			<use transform="translate(390,0) rotate(-45)" xlink:href="#led-g-template"/>
			<use transform="translate(420,0) rotate(-45)" xlink:href="#led-b-template"/>
			<use transform="translate(450,0) rotate(-45)" xlink:href="#led-r-template"/>
			<use transform="translate(480,0) rotate(-45)" xlink:href="#led-g-template"/>
			<use transform="translate(510,0) rotate(-45)" xlink:href="#led-b-template"/>
			<use transform="translate(540,0) rotate(-45)" xlink:href="#led-r-template"/>
			<use transform="translate(570,0) rotate(-45)" xlink:href="#led-g-template"/>
			<use transform="translate(600,0) rotate(-45)" xlink:href="#led-b-template"/>
			<use transform="translate(630,0) rotate(-45)" xlink:href="#led-r-template"/>
			<use transform="translate(660,0) rotate(-45)" xlink:href="#led-g-template"/>
			<use transform="translate(690,0) rotate(-45)" xlink:href="#led-b-template"/>
		</g>
		<polyline fill="none" id="pin-template" points="-10,0 10,0" stroke="#888888" stroke-width="1"/>
		<circle cx="0" cy="0" id="terminal-template" opacity="0" r="0.001"/>
	</defs>
	<g id="schematic">
		<g transform="translate(35,15)">
			<use transform="translate(0,0)" xlink:href="#column-line-template"/>
			<use transform="translate(30,0)" xlink:href="#column-line-template"/>
			<use transform="translate(60,0)" xlink:href="#column-line-template"/>
			<use transform="translate(90,0)" xlink:href="#column-line-template"/>
			<use transform="translate(120,0)" xlink:href="#column-line-template"/>
			<use transform="translate(150,0)" xlink:href="#column-line-template"/>
			<use transform="translate(180,0)" xlink:href="#column-line-template"/>
			<use transform="translate(210,0)" xlink:href="#column-line-template"/>
			<use transform="translate(240,0)" xlink:href="#column-line-template"/>
			<use transform="translate(270,0)" xlink:href="#column-line-template"/>
			<use transform="translate(300,0)" xlink:href="#column-line-template"/>
			<use transform="translate(330,0)" xlink:href="#column-line-template"/>
			<use transform="translate(360,0)" xlink:href="#column-line-template"/>
			<use transform="translate(390,0)" xlink:href="#column-line-template"/>
			<use transform="translate(420,0)" xlink:href="#column-line-template"/>
			<use transform="translate(450,0)" xlink:href="#column-line-template"/>
			<use transform="translate(480,0)" xlink:href="#column-line-template"/>
			<use transform="translate(510,0)" xlink:href="#column-line-template"/>
			<use transform="translate(540,0)" xlink:href="#column-line-template"/>
			<use transform="translate(570,0)" xlink:href="#column-line-template"/>
			<use transform="translate(600,0)" xlink:href="#column-line-template"/>
			<use transform="translate(630,0)" xlink:href="#column-line-template"/>
			<use transform="translate(660,0)" xlink:href="#column-line-template"/>
			<use transform="translate(690,0)" xlink:href="#column-line-template"/>
		</g>
		<g transform="translate(20,0)">
			<use transform="translate(0,0)" xlink:href="#row-line-template"/>
			<use transform="translate(0,90)" xlink:href="#row-line-template"/>
			<use transform="translate(0,180)" xlink:href="#row-line-template"/>
			<use transform="translate(0,270)" xlink:href="#row-line-template"/>
			<use transform="translate(0,360)" xlink:href="#row-line-template"/>
			<use transform="translate(0,450)" xlink:href="#row-line-template"/>
			<use transform="translate(0,540)" xlink:href="#row-line-template"/>
			<use transform="translate(0,630)" xlink:href="#row-line-template"/>
		</g>
		<g transform="translate(27.5,7.5)">
			<use transform="translate(0,0)" xlink:href="#led-row-template"/>
			<use transform="translate(0,90)" xlink:href="#led-row-template"/>
			<use transform="translate(0,180)" xlink:href="#led-row-template"/>
			<use transform="translate(0,270)" xlink:href="#led-row-template"/>
			<use transform="translate(0,360)" xlink:href="#led-row-template"/>
			<use transform="translate(0,450)" xlink:href="#led-row-template"/>
			<use transform="translate(0,540)" xlink:href="#led-row-template"/>
			<use transform="translate(0,630)" xlink:href="#led-row-template"/>
		</g>
		<g transform="translate(35,715)">
			<use id="connector-CR1-pin" transform="translate(0,0) rotate(90)" xlink:href="#pin-template"/>
			<use id="connector-CG1-pin" transform="translate(30,0) rotate(90)" xlink:href="#pin-template"/>
			<use id="connector-CB1-pin" transform="translate(60,0) rotate(90)" xlink:href="#pin-template"/>
			<use id="connector-CR2-pin" transform="translate(90,0) rotate(90)" xlink:href="#pin-template"/>
			<use id="connector-CG2-pin" transform="translate(120,0) rotate(90)" xlink:href="#pin-template"/>
			<use id="connector-CB2-pin" transform="translate(150,0) rotate(90)" xlink:href="#pin-template"/>
			<use id="connector-CR3-pin" transform="translate(180,0) rotate(90)" xlink:href="#pin-template"/>
			<use id="connector-CG3-pin" transform="translate(210,0) rotate(90)" xlink:href="#pin-template"/>
			<use id="connector-CB3-pin" transform="translate(240,0) rotate(90)" xlink:href="#pin-template"/>
			<use id="connector-CR4-pin" transform="translate(270,0) rotate(90)" xlink:href="#pin-template"/>
			<use id="connector-CG4-pin" transform="translate(300,0) rotate(90)" xlink:href="#pin-template"/>
			<use id="connector-CB4-pin" transform="translate(330,0) rotate(90)" xlink:href="#pin-template"/>
			<use id="connector-CR5-pin" transform="translate(360,0) rotate(90)" xlink:href="#pin-template"/>
			<use id="connector-CG5-pin" transform="translate(390,0) rotate(90)" xlink:href="#pin-template"/>
			<use id="connector-CB5-pin" transform="translate(420,0) rotate(90)" xlink:href="#pin-template"/>
			<use id="connector-CR6-pin" transform="translate(450,0) rotate(90)" xlink:href="#pin-template"/>
			<use id="connector-CG6-pin" transform="translate(480,0) rotate(90)" xlink:href="#pin-template"/>
			<use id="connector-CB6-pin" transform="translate(510,0) rotate(90)" xlink:href="#pin-template"/>
			<use id="connector-CR7-pin" transform="translate(540,0) rotate(90)" xlink:href="#pin-template"/>
			<use id="connector-CG7-pin" transform="translate(570,0) rotate(90)" xlink:href="#pin-template"/>
			<use id="connector-CB7-pin" transform="translate(600,0) rotate(90)" xlink:href="#pin-template"/>
			<use id="connector-CR8-pin" transform="translate(630,0) rotate(90)" xlink:href="#pin-template"/>
			<use id="connector-CG8-pin" transform="translate(660,0) rotate(90)" xlink:href="#pin-template"/>
			<use id="connector-CB8-pin" transform="translate(690,0) rotate(90)" xlink:href="#pin-template"/>
		</g>
		<g transform="translate(10,0)">
			<use id="connector-R1-pin" transform="translate(0,0)" xlink:href="#pin-template"/>
			<use id="connector-R2-pin" transform="translate(0,90)" xlink:href="#pin-template"/>
			<use id="connector-R3-pin" transform="translate(0,180)" xlink:href="#pin-template"/>
			<use id="connector-R4-pin" transform="translate(0,270)" xlink:href="#pin-template"/>
			<use id="connector-R5-pin" transform="translate(0,360)" xlink:href="#pin-template"/>
			<use id="connector-R6-pin" transform="translate(0,450)" xlink:href="#pin-template"/>
			<use id="connector-R7-pin" transform="translate(0,540)" xlink:href="#pin-template"/>
			<use id="connector-R8-pin" transform="translate(0,630)" xlink:href="#pin-template"/>
		</g>
		<g transform="translate(35,725)">
			<use id="connector-CR1-terminal" transform="translate(0,0)" xlink:href="#terminal-template"/>
			<use id="connector-CG1-terminal" transform="translate(30,0)" xlink:href="#terminal-template"/>
			<use id="connector-CB1-terminal" transform="translate(60,0)" xlink:href="#terminal-template"/>
			<use id="connector-CR2-terminal" transform="translate(90,0)" xlink:href="#terminal-template"/>
			<use id="connector-CG2-terminal" transform="translate(120,0)" xlink:href="#terminal-template"/>
			<use id="connector-CB2-terminal" transform="translate(150,0)" xlink:href="#terminal-template"/>
			<use id="connector-CR3-terminal" transform="translate(180,0)" xlink:href="#terminal-template"/>
			<use id="connector-CG3-terminal" transform="translate(210,0)" xlink:href="#terminal-template"/>
			<use id="connector-CB3-terminal" transform="translate(240,0)" xlink:href="#terminal-template"/>
			<use id="connector-CR4-terminal" transform="translate(270,0)" xlink:href="#terminal-template"/>
			<use id="connector-CG4-terminal" transform="translate(300,0)" xlink:href="#terminal-template"/>
			<use id="connector-CB4-terminal" transform="translate(330,0)" xlink:href="#terminal-template"/>
			<use id="connector-CR5-terminal" transform="translate(360,0)" xlink:href="#terminal-template"/>
			<use id="connector-CG5-terminal" transform="translate(390,0)" xlink:href="#terminal-template"/>
			<use id="connector-CB5-terminal" transform="translate(420,0)" xlink:href="#terminal-template"/>
			<use id="connector-CR6-terminal" transform="translate(450,0)" xlink:href="#terminal-template"/>
			<use id="connector-CG6-terminal" transform="translate(480,0)" xlink:href="#terminal-template"/>
			<use id="connector-CB6-terminal" transform="translate(510,0)" xlink:href="#terminal-template"/>
			<use id="connector-CR7-terminal" transform="translate(540,0)" xlink:href="#terminal-template"/>
			<use id="connector-CG7-terminal" transform="translate(570,0)" xlink:href="#terminal-template"/>
			<use id="connector-CB7-terminal" transform="translate(600,0)" xlink:href="#terminal-template"/>
			<use id="connector-CR8-terminal" transform="translate(630,0)" xlink:href="#terminal-template"/>
			<use id="connector-CG8-terminal" transform="translate(660,0)" xlink:href="#terminal-template"/>
			<use id="connector-CB8-terminal" transform="translate(690,0)" xlink:href="#terminal-template"/>
		</g>
		<g transform="translate(0,0)">
			<use id="connector-R1-terminal" transform="translate(0,0)" xlink:href="#terminal-template"/>
			<use id="connector-R2-terminal" transform="translate(0,90)" xlink:href="#terminal-template"/>
			<use id="connector-R3-terminal" transform="translate(0,180)" xlink:href="#terminal-template"/>
			<use id="connector-R4-terminal" transform="translate(0,270)" xlink:href="#terminal-template"/>
			<use id="connector-R5-terminal" transform="translate(0,360)" xlink:href="#terminal-template"/>
			<use id="connector-R6-terminal" transform="translate(0,450)" xlink:href="#terminal-template"/>
			<use id="connector-R7-terminal" transform="translate(0,540)" xlink:href="#terminal-template"/>
			<use id="connector-R8-terminal" transform="translate(0,630)" xlink:href="#terminal-template"/>
		</g>
		<g transform="translate(20,0)">
			<use transform="translate(0,0)" xlink:href="#joint-row-template"/>
			<use transform="translate(0,90)" xlink:href="#joint-row-template"/>
			<use transform="translate(0,180)" xlink:href="#joint-row-template"/>
			<use transform="translate(0,270)" xlink:href="#joint-row-template"/>
			<use transform="translate(0,360)" xlink:href="#joint-row-template"/>
			<use transform="translate(0,450)" xlink:href="#joint-row-template"/>
			<use transform="translate(0,540)" xlink:href="#joint-row-template"/>
			<use transform="translate(0,630)" xlink:href="#joint-row-template"/>
		</g>
		<g transform="translate(35,15)">
			<use transform="translate(0,0)" xlink:href="#joint-row-template"/>
			<use transform="translate(0,90)" xlink:href="#joint-row-template"/>
			<use transform="translate(0,180)" xlink:href="#joint-row-template"/>
			<use transform="translate(0,270)" xlink:href="#joint-row-template"/>
			<use transform="translate(0,360)" xlink:href="#joint-row-template"/>
			<use transform="translate(0,450)" xlink:href="#joint-row-template"/>
			<use transform="translate(0,540)" xlink:href="#joint-row-template"/>
			<use transform="translate(0,630)" xlink:href="#joint-row-template"/>
		</g>
		<g fill="#888888" font-family="OCRA" font-size="8" stroke="none">
			<g text-anchor="end" transform="translate(33,723)">
				<text transform="translate(0,0)">9</text>
				<text transform="translate(30,0)">28</text>
				<text transform="translate(60,0)">1</text>
				<text transform="translate(90,0)">10</text>
				<text transform="translate(120,0)">27</text>
				<text transform="translate(150,0)">2</text>
				<text transform="translate(180,0)">11</text>
				<text transform="translate(210,0)">26</text>
				<text transform="translate(240,0)">3</text>
				<text transform="translate(270,0)">12</text>
				<text transform="translate(300,0)">25</text>
				<text transform="translate(330,0)">4</text>
				<text transform="translate(360,0)">13</text>
				<text transform="translate(390,0)">24</text>
				<text transform="translate(420,0)">5</text>
				<text transform="translate(450,0)">14</text>
				<text transform="translate(480,0)">23</text>
				<text transform="translate(510,0)">6</text>
				<text transform="translate(540,0)">15</text>
				<text transform="translate(570,0)">22</text>
				<text transform="translate(600,0)">7</text>
				<text transform="translate(630,0)">16</text>
				<text transform="translate(660,0)">21</text>
				<text transform="translate(690,0)">8</text>
			</g>
			<g text-anchor="start" transform="translate(2,10)">
				<text transform="translate(0,0)">17</text>
				<text transform="translate(0,90)">18</text>
				<text transform="translate(0,180)">19</text>
				<text transform="translate(0,270)">20</text>
				<text transform="translate(0,360)">29</text>
				<text transform="translate(0,450)">30</text>
				<text transform="translate(0,540)">31</text>
				<text transform="translate(0,630)">32</text>
			</g>
		</g>
	</g>
</svg>