<?xml version="1.0" encoding="UTF-8"?>
<!DOCTYPE svg PUBLIC "-//W3C//DTD SVG 1.1//EN" "http://www.w3.org/Graphics/SVG/1.1/DTD/svg11.dtd">
<svg height="0.7in" version="1.1" viewBox="0 0 110 70" width="1.1in" xmlns="http://www.w3.org/2000/svg" xmlns:xlink="http://www.w3.org/1999/xlink">
	<defs>
		<polyline fill="none" id="pin-template" points="-10,0 10,0" stroke="#888888" stroke-width="1"/>
		<circle cx="0" cy="0" id="terminal-template" opacity="0" r="0.001"/>
	</defs>
	<g id="schematic">
		<g font-family="OCRA" font-size="3" text-anchor="middle">
			<rect fill="#FFFFFF" height="30" stroke="#000000" width="70" x="20" y="20"/>
			<g fill="#888888" stroke="#888888" transform="translate(55,0)">
				<g transform="translate(0,30)">
					<text stroke="none" x="-45" y="-1">SBL.GND</text>
					<use id="connector-SBL.GND-pin" transform="translate(-45,0)" xlink:href="#pin-template"/>
					<use id="connector-SBL.GND-terminal" transform="translate(-55,0)" xlink:href="#terminal-template"/>
					<text stroke="none" x="45" y="-1">SBR.GND</text>
					<use id="connector-SBR.GND-pin" transform="translate(45,0)" xlink:href="#pin-template"/>
					<use id="connector-SBR.GND-terminal" transform="translate(55,0)" xlink:href="#terminal-template"/>
				</g>
				<g transform="translate(0,40)">
					<text stroke="none" x="-45" y="-1">SFL.GND</text>
					<use id="connector-SFL.GND-pin" transform="translate(-45,0)" xlink:href="#pin-template"/>
					<use id="connector-SFL.GND-terminal" transform="translate(-55,0)" xlink:href="#terminal-template"/>
					<text stroke="none" x="45" y="-1">SFR.GND</text>
					<use id="connector-SFR.GND-pin" transform="translate(45,0)" xlink:href="#pin-template"/>
					<use id="connector-SFR.GND-terminal" transform="translate(55,0)" xlink:href="#terminal-template"/>
				</g>
				<g stroke="none" transform="translate(0,35)">
					<text x="0" y="0">USB (3.0)</text>
					<text x="0" y="3">Type-C</text>
				</g>
				<g transform="translate(0,70)">
					<text stroke="none" transform="translate(-28.75,-10) rotate(90)">GND1</text>
					<use id="connector-GND1-pin" transform="translate(-25,-10) rotate(90)" xlink:href="#pin-template"/>
					<use id="connector-GND1-terminal" transform="translate(-25,0)" xlink:href="#terminal-template"/>
					<text stroke="none" transform="translate(-18.75,-10) rotate(90)">TX+</text>
					<use id="connector-TX+-pin" transform="translate(-15,-10) rotate(90)" xlink:href="#pin-template"/>
					<use id="connector-TX+-terminal" transform="translate(-15,0)" xlink:href="#terminal-template"/>
					<text stroke="none" transform="translate(-8.75,-10) rotate(90)">TX-</text>
					<use id="connector-TX--pin" transform="translate(-5,-10) rotate(90)" xlink:href="#pin-template"/>
					<use id="connector-TX--terminal" transform="translate(-5,0)" xlink:href="#terminal-template"/>
					<text stroke="none" transform="translate(6,-10) rotate(90)">VCC1</text>
					<use id="connector-VCC1-pin" transform="translate(5,-10) rotate(90)" xlink:href="#pin-template"/>
					<use id="connector-VCC1-terminal" transform="translate(5,0)" xlink:href="#terminal-template"/>
					<text stroke="none" transform="translate(16,-10) rotate(90)">CC</text>
					<use id="connector-CC-pin" transform="translate(15,-10) rotate(90)" xlink:href="#pin-template"/>
					<use id="connector-CC-terminal" transform="translate(15,0)" xlink:href="#terminal-template"/>
					<text stroke="none" transform="translate(26,-10) rotate(90)">D+</text>
					<use id="connector-D+-pin" transform="translate(25,-10) rotate(90)" xlink:href="#pin-template"/>
					<use id="connector-D+-terminal" transform="translate(25,0)" xlink:href="#terminal-template"/>
				</g>
				<g transform="translate(0,0)">
					<text stroke="none" transform="translate(26,10) rotate(90)">D-</text>
					<use id="connector-D--pin" transform="translate(25,10) rotate(90)" xlink:href="#pin-template"/>
					<use id="connector-D--terminal" transform="translate(25,0)" xlink:href="#terminal-template"/>
					<text stroke="none" transform="translate(16,10) rotate(90)">SBU</text>
					<use id="connector-SBU-pin" transform="translate(15,10) rotate(90)" xlink:href="#pin-template"/>
					<use id="connector-SBU-terminal" transform="translate(15,0)" xlink:href="#terminal-template"/>
					<text stroke="none" transform="translate(6,10) rotate(90)">VCC2</text>
					<use id="connector-VCC2-pin" transform="translate(5,10) rotate(90)" xlink:href="#pin-template"/>
					<use id="connector-VCC2-terminal" transform="translate(5,0)" xlink:href="#terminal-template"/>
					<text stroke="none" transform="translate(-8.75,10) rotate(90)">RX-</text>
					<use id="connector-RX--pin" transform="translate(-5,10) rotate(90)" xlink:href="#pin-template"/>
					<use id="connector-RX--terminal" transform="translate(-5,0)" xlink:href="#terminal-template"/>
					<text stroke="none" transform="translate(-18.75,10) rotate(90)">RX+</text>
					<use id="connector-RX+-pin" transform="translate(-15,10) rotate(90)" xlink:href="#pin-template"/>
					<use id="connector-RX+-terminal" transform="translate(-15,0)" xlink:href="#terminal-template"/>
					<text stroke="none" transform="translate(-28.75,10) rotate(90)">GND2</text>
					<use id="connector-GND2-pin" transform="translate(-25,10) rotate(90)" xlink:href="#pin-template"/>
					<use id="connector-GND2-terminal" transform="translate(-25,0)" xlink:href="#terminal-template"/>
				</g>
			</g>
		</g>
	</g>
</svg>