<?xml version="1.0" encoding="UTF-8"?>
<!DOCTYPE svg PUBLIC "-//W3C//DTD SVG 1.1//EN" "http://www.w3.org/Graphics/SVG/1.1/DTD/svg11.dtd">
<svg version="1.1" xmlns="http://www.w3.org/2000/svg" xmlns:xlink="http://www.w3.org/1999/xlink" width="0.6in" height="1.1in" viewBox="0 0 60 110">
	<g transform="translate(30,0)">
		<g id="silkscreen">
			<polygon fill="none" stroke="#000000" stroke-width="1" points="-30,0 30,0 30,110 20,110 20,100 -20,100 -20,110 -30,110"/>
			<g fill="#000000" font-family="OCRA" stroke="none" transform="rotate(90)">
				<text font-size="10" text-anchor="middle" x="50" y="4">03962A</text>
				<g font-size="5" transform="translate(0,2)">
					<g text-anchor="start" transform="translate(10,0)">
						<text x="0" y="-25">VIN+</text>
						<text x="0" y="25">VIN-</text>
					</g>
					<g text-anchor="end" transform="translate(90,0)">
						<text x="0" y="-25">VOUT+</text>
						<text x="0" y="25">VOUT-</text>
						<text x="0" y="-15">BAT+</text>
						<text x="0" y="15">BAT-</text>
					</g>
				</g>
			</g>
		</g>
		<g class="top-layer" id="copper1">
			<g class="bottom-layer" id="copper0">
				<g transform="translate(0,5)">
					<g transform="translate(25,0)">
						<g id="connector-VIN+-pad">
							<rect fill="none" height="6" stroke="#FFBF00" stroke-width="1.5" width="6" x="-3" y="-3"/>
							<circle cx="0" cy="0" fill="none" id="pad-template" r="3" stroke="#FFBF00" stroke-width="1.5"/>
						</g>
					</g>
					<use id="connector-VIN--pad" transform="translate(-25,0)" xlink:href="#pad-template"/>
				</g>
				<g transform="translate(0,95)">
					<use id="connector-VOUT+-pad" transform="translate(25,0)" xlink:href="#connector-VIN+-pad"/>
					<use id="connector-VOUT--pad" transform="translate(-25,0)" xlink:href="#pad-template"/>
					<use id="connector-BAT+-pad" transform="translate(15,0)" xlink:href="#connector-VIN+-pad"/>
					<use id="connector-BAT--pad" transform="translate(-15,0)" xlink:href="#pad-template"/>
				</g>
			</g>
		</g>
	</g>
</svg>