<?xml version="1.0" encoding="UTF-8"?>
<!DOCTYPE svg PUBLIC "-//W3C//DTD SVG 1.1//EN" "http://www.w3.org/Graphics/SVG/1.1/DTD/svg11.dtd">
<svg height="0.4in" version="1.1" viewBox="0 0 40 40" width="0.4in" xmlns="http://www.w3.org/2000/svg" xmlns:xlink="http://www.w3.org/1999/xlink">
	<g id="silkscreen">
		<polyline fill="none" points="15,0 0,0 0,40 40,40 40,0 25,0" stroke="#000000" stroke-width="1"/>
		<g fill="#000000" font-family="OCRA" stroke="none" transform="translate(20,0)">
			<text font-size="5" text-anchor="middle" transform="rotate(90)" x="20" y="1.25">DS1302</text>
			<g font-size="2">
				<g text-anchor="start" transform="translate(-10,5.5)">
					<text x="0" y="0">VCC0</text>
					<text x="0" y="10">C0</text>
					<text x="0" y="20">C1</text>
					<text x="0" y="30">GND</text>
				</g>
				<g text-anchor="end" transform="translate(10,5.5)">
					<text x="0" y="30">RST</text>
					<text x="0" y="20">DAT</text>
					<text x="0" y="10">CLK</text>
					<text x="0" y="0">VCC1</text>
				</g>
			</g>
		</g>
	</g>
	<g class="top-layer" id="copper1">
		<g class="bottom-layer" id="copper0">
			<g transform="translate(20,5)">
				<g transform="translate(-15,0)">
					<g id="connector-VCC0-pad">
						<rect fill="none" height="6" stroke="#FFBF00" stroke-width="1" width="6" x="-3" y="-3"/>
						<circle cx="0" cy="0" fill="none" id="pad-template" r="3" stroke="#FFBF00" stroke-width="1"/>
					</g>
					<use id="connector-C0-pad" transform="translate(0,10)" xlink:href="#pad-template"/>
					<use id="connector-C1-pad" transform="translate(0,20)" xlink:href="#pad-template"/>
					<use id="connector-GND-pad" transform="translate(0,30)" xlink:href="#pad-template"/>
				</g>
				<g transform="translate(15,0)">
					<use id="connector-RST-pad" transform="translate(0,30)" xlink:href="#pad-template"/>
					<use id="connector-DAT-pad" transform="translate(0,20)" xlink:href="#pad-template"/>
					<use id="connector-CLK-pad" transform="translate(0,10)" xlink:href="#pad-template"/>
					<use id="connector-VCC1-pad" transform="translate(0,0)" xlink:href="#pad-template"/>
				</g>
			</g>
		</g>
	</g>
</svg>