<?xml version="1.0" encoding="UTF-8"?>
<!DOCTYPE svg PUBLIC "-//W3C//DTD SVG 1.1//EN" "http://www.w3.org/Graphics/SVG/1.1/DTD/svg11.dtd">
<svg height="0.2in" version="1.1" viewBox="0 0 20 20" width="0.2in" xmlns="http://www.w3.org/2000/svg" xmlns:xlink="http://www.w3.org/1999/xlink">
	<g id="silkscreen">
		<g transform="translate(0,10)">
			<rect fill="none" height="10" stroke="#000000" stroke-width="0.5" width="20" x="0" y="-5"/>
			<text fill="#000000" font-family="OCRA" font-size="2.5" stroke="none" text-anchor="middle" x="10" y="0.625">555</text>
			<circle cx="2.5" cy="2.5" fill="#000000" r="0.5" stroke="none"/>
		</g>
	</g>
	<g class="top-layer" id="copper1">
		<g transform="translate(2.5,10)">
			<g transform="translate(0,7.5)">
				<g>
					<rect fill="#FFBF00" height="5" id="connector-GND-pad" stroke="none" width="2.5" x="-1.25" y="-2.5"/>
					<use id="connector-TRIG-pad" transform="translate(5,0)" xlink:href="#connector-GND-pad"/>
					<use id="connector-OUT-pad" transform="translate(10,0)" xlink:href="#connector-GND-pad"/>
					<use id="connector-RST-pad" transform="translate(15,0)" xlink:href="#connector-GND-pad"/>
				</g>
				<g transform="translate(0,2.5)">
					<circle cx="0" cy="0" id="connector-GND-terminal" opacity="0" r="0.001"/>
					<use id="connector-TRIG-terminal" transform="translate(5,0)" xlink:href="#connector-GND-terminal"/>
					<use id="connector-OUT-terminal" transform="translate(10,0)" xlink:href="#connector-GND-terminal"/>
					<use id="connector-RST-terminal" transform="translate(15,0)" xlink:href="#connector-GND-terminal"/>
				</g>
			</g>
			<g transform="translate(0,-7.5)">
				<g>
					<use id="connector-CTRL-pad" transform="translate(15,0)" xlink:href="#connector-GND-pad"/>
					<use id="connector-THRE-pad" transform="translate(10,0)" xlink:href="#connector-GND-pad"/>
					<use id="connector-DIS-pad" transform="translate(5,0)" xlink:href="#connector-GND-pad"/>
					<use id="connector-VCC-pad" transform="translate(0,0)" xlink:href="#connector-GND-pad"/>
				</g>
				<g transform="translate(0,-2.5)">
					<use id="connector-CTRL-terminal" transform="translate(15,0)" xlink:href="#connector-GND-terminal"/>
					<use id="connector-THRE-terminal" transform="translate(10,0)" xlink:href="#connector-GND-terminal"/>
					<use id="connector-DIS-terminal" transform="translate(5,0)" xlink:href="#connector-GND-terminal"/>
					<use id="connector-VCC-terminal" transform="translate(0,0)" xlink:href="#connector-GND-terminal"/>
				</g>
			</g>
		</g>
	</g>
	<g class="bottom-layer" id="copper0"/>
</svg>