<?xml version="1.0" encoding="UTF-8"?>
<!DOCTYPE svg PUBLIC "-//W3C//DTD SVG 1.1//EN" "http://www.w3.org/Graphics/SVG/1.1/DTD/svg11.dtd">
<svg height="1.1in" version="1.1" viewBox="0 0 90 110" width="0.9in" xmlns="http://www.w3.org/2000/svg" xmlns:xlink="http://www.w3.org/1999/xlink">
	<g id="silkscreen">
		<rect fill="none" height="110" stroke="#000000" stroke-width="1" width="90" x="0" y="0"/>
		<g fill="#000000" font-family="OCRA" font-size="4" stroke="none" transform="translate(45,16)">
			<g text-anchor="start" transform="translate(-25,0)">
				<text transform="translate(0,0)">AL</text>
				<text transform="translate(0,10)">UP</text>
				<text transform="translate(0,20)">UPL</text>
				<text transform="translate(0,30)">F</text>
				<text transform="translate(0,40)">GL</text>
				<text transform="translate(0,50)">DN</text>
				<text transform="translate(0,60)">DNL</text>
				<text transform="translate(0,70)">E</text>
				<text transform="translate(0,80)">DL</text>
			</g>
			<g text-anchor="end" transform="translate(25,0)">
				<text transform="translate(0,80)">DR</text>
				<text transform="translate(0,70)">1</text>
				<text transform="translate(0,60)">P</text>
				<text transform="translate(0,50)">C</text>
				<text transform="translate(0,40)">DNR</text>
				<text transform="translate(0,30)">GR</text>
				<text transform="translate(0,20)">B</text>
				<text transform="translate(0,10)">UPR</text>
				<text transform="translate(0,0)">AR</text>
			</g>
		</g>
	</g>
	<g class="top-layer" id="copper1">
		<g class="bottom-layer" id="copper0">
			<g transform="translate(45,15)">
				<g transform="translate(-30,0)">
					<g id="connector-AL-pad">
						<rect fill="none" height="6" stroke="#FFBF00" stroke-width="1" width="6" x="-3" y="-3"/>
						<circle cx="0" cy="0" fill="none" id="pad-template" r="3" stroke="#FFBF00" stroke-width="1"/>
					</g>
					<use id="connector-UP-pad" transform="translate(0,10)" xlink:href="#pad-template"/>
					<use id="connector-UPL-pad" transform="translate(0,20)" xlink:href="#pad-template"/>
					<use id="connector-F-pad" transform="translate(0,30)" xlink:href="#pad-template"/>
					<use id="connector-GL-pad" transform="translate(0,40)" xlink:href="#pad-template"/>
					<use id="connector-DN-pad" transform="translate(0,50)" xlink:href="#pad-template"/>
					<use id="connector-DNL-pad" transform="translate(0,60)" xlink:href="#pad-template"/>
					<use id="connector-E-pad" transform="translate(0,70)" xlink:href="#pad-template"/>
					<use id="connector-DL-pad" transform="translate(0,80)" xlink:href="#pad-template"/>
				</g>
				<g transform="translate(30,0)">
					<use id="connector-DR-pad" transform="translate(0,80)" xlink:href="#pad-template"/>
					<use id="connector-1-pad" transform="translate(0,70)" xlink:href="#pad-template"/>
					<use id="connector-P-pad" transform="translate(0,60)" xlink:href="#pad-template"/>
					<use id="connector-C-pad" transform="translate(0,50)" xlink:href="#pad-template"/>
					<use id="connector-DNR-pad" transform="translate(0,40)" xlink:href="#pad-template"/>
					<use id="connector-GR-pad" transform="translate(0,30)" xlink:href="#pad-template"/>
					<use id="connector-B-pad" transform="translate(0,20)" xlink:href="#pad-template"/>
					<use id="connector-UPR-pad" transform="translate(0,10)" xlink:href="#pad-template"/>
					<use id="connector-AR-pad" transform="translate(0,0)" xlink:href="#pad-template"/>
				</g>
			</g>
		</g>
	</g>
</svg>