<?xml version="1.0" encoding="UTF-8"?>
<!DOCTYPE svg PUBLIC "-//W3C//DTD SVG 1.1//EN" "http://www.w3.org/Graphics/SVG/1.1/DTD/svg11.dtd">
<svg height="1.1in" version="1.1" viewBox="0 0 180 110" width="1.8in" xmlns="http://www.w3.org/2000/svg" xmlns:xlink="http://www.w3.org/1999/xlink">
	<g id="silkscreen">
		<rect fill="none" height="110" stroke="#000000" stroke-width="1" width="180" x="0" y="0"/>
		<g fill="#000000" font-family="OCRA" font-size="4" stroke="none" transform="translate(45,55)">
			<g text-anchor="middle" transform="translate(0,35)">
				<text transform="translate(0,0)">DL</text>
				<text transform="translate(10,0)">DNL</text>
				<text transform="translate(20,0)">DN</text>
				<text transform="translate(30,0)">2</text>
				<text transform="translate(40,0)">P</text>
				<text transform="translate(50,0)">E</text>
				<text transform="translate(60,0)">DNR</text>
				<text transform="translate(70,0)">C</text>
				<text transform="translate(80,0)">DR</text>
				<text transform="translate(90,0)">1</text>
			</g>
			<g text-anchor="middle" transform="translate(0,-31)">
				<text transform="translate(90,0)">AR</text>
				<text transform="translate(80,0)">UPR</text>
				<text transform="translate(70,0)">AL</text>
				<text transform="translate(60,0)">NC</text>
				<text transform="translate(50,0)">F</text>
				<text transform="translate(40,0)">GR</text>
				<text transform="translate(30,0)">B</text>
				<text transform="translate(20,0)">UP</text>
				<text transform="translate(10,0)">UPL</text>
				<text transform="translate(0,0)">GL</text>
			</g>
		</g>
	</g>
	<g class="top-layer" id="copper1">
		<g class="bottom-layer" id="copper0">
			<g transform="translate(45,55)">
				<g transform="translate(0,40)">
					<g id="connector-DL-pad">
						<rect fill="none" height="6" stroke="#FFBF00" stroke-width="1" width="6" x="-3" y="-3"/>
						<circle cx="0" cy="0" fill="none" id="pad-template" r="3" stroke="#FFBF00" stroke-width="1"/>
					</g>
					<use id="connector-DNL-pad" transform="translate(10,0)" xlink:href="#pad-template"/>
					<use id="connector-DN-pad" transform="translate(20,0)" xlink:href="#pad-template"/>
					<use id="connector-2-pad" transform="translate(30,0)" xlink:href="#pad-template"/>
					<use id="connector-P-pad" transform="translate(40,0)" xlink:href="#pad-template"/>
					<use id="connector-E-pad" transform="translate(50,0)" xlink:href="#pad-template"/>
					<use id="connector-DNR-pad" transform="translate(60,0)" xlink:href="#pad-template"/>
					<use id="connector-C-pad" transform="translate(70,0)" xlink:href="#pad-template"/>
					<use id="connector-DR-pad" transform="translate(80,0)" xlink:href="#pad-template"/>
					<use id="connector-1-pad" transform="translate(90,0)" xlink:href="#pad-template"/>
				</g>
				<g transform="translate(0,-40)">
					<use id="connector-AR-pad" transform="translate(90,0)" xlink:href="#pad-template"/>
					<use id="connector-UPR-pad" transform="translate(80,0)" xlink:href="#pad-template"/>
					<use id="connector-AL-pad" transform="translate(70,0)" xlink:href="#pad-template"/>
					<use id="connector-NC-pad" transform="translate(60,0)" xlink:href="#pad-template"/>
					<use id="connector-F-pad" transform="translate(50,0)" xlink:href="#pad-template"/>
					<use id="connector-GR-pad" transform="translate(40,0)" xlink:href="#pad-template"/>
					<use id="connector-B-pad" transform="translate(30,0)" xlink:href="#pad-template"/>
					<use id="connector-UP-pad" transform="translate(20,0)" xlink:href="#pad-template"/>
					<use id="connector-UPL-pad" transform="translate(10,0)" xlink:href="#pad-template"/>
					<use id="connector-GL-pad" transform="translate(0,0)" xlink:href="#pad-template"/>
				</g>
			</g>
		</g>
	</g>
</svg>