<?xml version="1.0" encoding="UTF-8"?>
<!DOCTYPE svg PUBLIC "-//W3C//DTD SVG 1.1//EN" "http://www.w3.org/Graphics/SVG/1.1/DTD/svg11.dtd">
<svg height="0.7in" version="1.1" viewBox="0 0 150 70" width="1.5in" xmlns="http://www.w3.org/2000/svg" xmlns:xlink="http://www.w3.org/1999/xlink">
	<g id="silkscreen">
		<rect fill="none" height="70" stroke="#000000" stroke-width="1" width="150" x="0" y="0"/>
		<g fill="#000000" font-family="OCRA" font-size="5" stroke="none" text-anchor="middle" transform="translate(50,35)">
			<g transform="translate(0,25)">
				<text transform="translate(0,0)">E</text>
				<text transform="translate(10,0)">D</text>
				<text transform="translate(20,0)">P</text>
				<text transform="translate(30,0)">C</text>
				<text transform="translate(40,0)">G</text>
				<text transform="translate(50,0)">NC</text>
			</g>
			<g transform="translate(0,-21.25)">
				<text transform="translate(50,0)">B</text>
				<text transform="translate(40,0)">1</text>
				<text transform="translate(30,0)">2</text>
				<text transform="translate(20,0)">F</text>
				<text transform="translate(10,0)">A</text>
				<text transform="translate(0,0)">3</text>
			</g>
		</g>
	</g>
	<g class="top-layer" id="copper1">
		<g class="bottom-layer" id="copper0">
			<g transform="translate(50,35)">
				<g transform="translate(0,30)">
					<g id="connector-E-pad">
						<rect fill="none" height="6" stroke="#FFBF00" stroke-width="1" width="6" x="-3" y="-3"/>
						<circle cx="0" cy="0" fill="none" id="pad-template" r="3" stroke="#FFBF00" stroke-width="1"/>
					</g>
					<use id="connector-D-pad" transform="translate(10,0)" xlink:href="#pad-template"/>
					<use id="connector-P-pad" transform="translate(20,0)" xlink:href="#pad-template"/>
					<use id="connector-C-pad" transform="translate(30,0)" xlink:href="#pad-template"/>
					<use id="connector-G-pad" transform="translate(40,0)" xlink:href="#pad-template"/>
					<use id="connector-NC-pad" transform="translate(50,0)" xlink:href="#pad-template"/>
				</g>
				<g transform="translate(0,-30)">
					<use id="connector-B-pad" transform="translate(50,0)" xlink:href="#pad-template"/>
					<use id="connector-1-pad" transform="translate(40,0)" xlink:href="#pad-template"/>
					<use id="connector-2-pad" transform="translate(30,0)" xlink:href="#pad-template"/>
					<use id="connector-F-pad" transform="translate(20,0)" xlink:href="#pad-template"/>
					<use id="connector-A-pad" transform="translate(10,0)" xlink:href="#pad-template"/>
					<use id="connector-3-pad" transform="translate(0,0)" xlink:href="#pad-template"/>
				</g>
			</g>
		</g>
	</g>
</svg>