<?xml version="1.0" encoding="UTF-8"?>
<!DOCTYPE svg PUBLIC "-//W3C//DTD SVG 1.1//EN" "http://www.w3.org/Graphics/SVG/1.1/DTD/svg11.dtd">
<svg height="0.1in" version="1.1" viewBox="0 0 130 10" width="1.3in" xmlns="http://www.w3.org/2000/svg" xmlns:xlink="http://www.w3.org/1999/xlink">
	<g id="silkscreen">
		<rect fill="none" height="10" stroke="#000000" stroke-width="1" width="130" x="0" y="0"/>
	</g>
	<g class="top-layer" id="copper1">
		<g class="bottom-layer" id="copper0">
			<g transform="translate(5,5)">
				<g id="connector-R0C0-pad">
					<rect fill="none" height="6" stroke="#FFBF00" stroke-width="1" width="6" x="-3" y="-3"/>
					<circle cx="0" cy="0" fill="none" id="pad-template" r="3" stroke="#FFBF00" stroke-width="1"/>
				</g>
				<use id="connector-R0C1-pad" transform="translate(10,0)" xlink:href="#pad-template"/>
				<use id="connector-R0C2-pad" transform="translate(20,0)" xlink:href="#pad-template"/>
				<use id="connector-R0C3-pad" transform="translate(30,0)" xlink:href="#pad-template"/>
				<use id="connector-R0C4-pad" transform="translate(40,0)" xlink:href="#pad-template"/>
				<use id="connector-R0C5-pad" transform="translate(50,0)" xlink:href="#pad-template"/>
				<use id="connector-R0C6-pad" transform="translate(60,0)" xlink:href="#pad-template"/>
				<use id="connector-R0C7-pad" transform="translate(70,0)" xlink:href="#pad-template"/>
				<use id="connector-R0C8-pad" transform="translate(80,0)" xlink:href="#pad-template"/>
				<use id="connector-R0C9-pad" transform="translate(90,0)" xlink:href="#pad-template"/>
				<use id="connector-R0C10-pad" transform="translate(100,0)" xlink:href="#pad-template"/>
				<use id="connector-R0C11-pad" transform="translate(110,0)" xlink:href="#pad-template"/>
				<use id="connector-R0C12-pad" transform="translate(120,0)" xlink:href="#pad-template"/>
			</g>
		</g>
	</g>
</svg>