<?xml version="1.0" encoding="UTF-8"?>
<!DOCTYPE svg PUBLIC "-//W3C//DTD SVG 1.1//EN" "http://www.w3.org/Graphics/SVG/1.1/DTD/svg11.dtd">
<svg height="2.4in" version="1.1" viewBox="0 0 240 240" width="2.4in" xmlns="http://www.w3.org/2000/svg" xmlns:xlink="http://www.w3.org/1999/xlink">
	<g id="silkscreen">
		<rect fill="none" height="240" stroke="#000000" stroke-width="1" width="240" x="0" y="0"/>
		<g font-family="OCRA" font-size="4" text-anchor="middle" transform="translate(45,120)">
			<g transform="translate(0,90)">
				<text x="0" y="0">CB1</text>
				<text x="10" y="0">CB2</text>
				<text x="20" y="0">CB3</text>
				<text x="30" y="0">CB4</text>
				<text x="40" y="0">CB5</text>
				<text x="50" y="0">CB6</text>
				<text x="60" y="0">CB7</text>
				<text x="70" y="0">CB8</text>
				<text x="80" y="0">CR1</text>
				<text x="90" y="0">CR2</text>
				<text x="100" y="0">CR3</text>
				<text x="110" y="0">CR4</text>
				<text x="120" y="0">CR5</text>
				<text x="130" y="0">CR6</text>
				<text x="140" y="0">CR7</text>
				<text x="150" y="0">CR8</text>
			</g>
			<g transform="translate(0,-87)">
				<text x="150" y="0">R1</text>
				<text x="140" y="0">R2</text>
				<text x="130" y="0">R3</text>
				<text x="120" y="0">R4</text>
				<text x="110" y="0">CG8</text>
				<text x="100" y="0">CG7</text>
				<text x="90" y="0">CG6</text>
				<text x="80" y="0">CG5</text>
				<text x="70" y="0">CG4</text>
				<text x="60" y="0">CG3</text>
				<text x="50" y="0">CG2</text>
				<text x="40" y="0">CG1</text>
				<text x="30" y="0">R5</text>
				<text x="20" y="0">R6</text>
				<text x="10" y="0">R7</text>
				<text x="0" y="0">R8</text>
			</g>
		</g>
	</g>
	<g class="top-layer" id="copper1">
		<g class="bottom-layer" id="copper0">
			<g transform="translate(45,120)">
				<g transform="translate(0,95)">
					<g id="connector-CB1-pad">
						<rect fill="none" height="6" stroke="#FFBF00" stroke-width="1" width="6" x="-3" y="-3"/>
						<circle cx="0" cy="0" fill="none" id="pad-template" r="3" stroke="#FFBF00" stroke-width="1"/>
					</g>
					<use id="connector-CB2-pad" transform="translate(10,0)" xlink:href="#pad-template"/>
					<use id="connector-CB3-pad" transform="translate(20,0)" xlink:href="#pad-template"/>
					<use id="connector-CB4-pad" transform="translate(30,0)" xlink:href="#pad-template"/>
					<use id="connector-CB5-pad" transform="translate(40,0)" xlink:href="#pad-template"/>
					<use id="connector-CB6-pad" transform="translate(50,0)" xlink:href="#pad-template"/>
					<use id="connector-CB7-pad" transform="translate(60,0)" xlink:href="#pad-template"/>
					<use id="connector-CB8-pad" transform="translate(70,0)" xlink:href="#pad-template"/>
					<use id="connector-CR1-pad" transform="translate(80,0)" xlink:href="#pad-template"/>
					<use id="connector-CR2-pad" transform="translate(90,0)" xlink:href="#pad-template"/>
					<use id="connector-CR3-pad" transform="translate(100,0)" xlink:href="#pad-template"/>
					<use id="connector-CR4-pad" transform="translate(110,0)" xlink:href="#pad-template"/>
					<use id="connector-CR5-pad" transform="translate(120,0)" xlink:href="#pad-template"/>
					<use id="connector-CR6-pad" transform="translate(130,0)" xlink:href="#pad-template"/>
					<use id="connector-CR7-pad" transform="translate(140,0)" xlink:href="#pad-template"/>
					<use id="connector-CR8-pad" transform="translate(150,0)" xlink:href="#pad-template"/>
				</g>
				<g transform="translate(0,-95)">
					<use id="connector-R1-pad" transform="translate(150,0)" xlink:href="#pad-template"/>
					<use id="connector-R2-pad" transform="translate(140,0)" xlink:href="#pad-template"/>
					<use id="connector-R3-pad" transform="translate(130,0)" xlink:href="#pad-template"/>
					<use id="connector-R4-pad" transform="translate(120,0)" xlink:href="#pad-template"/>
					<use id="connector-CG8-pad" transform="translate(110,0)" xlink:href="#pad-template"/>
					<use id="connector-CG7-pad" transform="translate(100,0)" xlink:href="#pad-template"/>
					<use id="connector-CG6-pad" transform="translate(90,0)" xlink:href="#pad-template"/>
					<use id="connector-CG5-pad" transform="translate(80,0)" xlink:href="#pad-template"/>
					<use id="connector-CG4-pad" transform="translate(70,0)" xlink:href="#pad-template"/>
					<use id="connector-CG3-pad" transform="translate(60,0)" xlink:href="#pad-template"/>
					<use id="connector-CG2-pad" transform="translate(50,0)" xlink:href="#pad-template"/>
					<use id="connector-CG1-pad" transform="translate(40,0)" xlink:href="#pad-template"/>
					<use id="connector-R5-pad" transform="translate(30,0)" xlink:href="#pad-template"/>
					<use id="connector-R6-pad" transform="translate(20,0)" xlink:href="#pad-template"/>
					<use id="connector-R7-pad" transform="translate(10,0)" xlink:href="#pad-template"/>
					<use id="connector-R8-pad" transform="translate(0,0)" xlink:href="#pad-template"/>
				</g>
			</g>
		</g>
	</g>
</svg>