<?xml version="1.0" encoding="UTF-8"?>
<!DOCTYPE svg PUBLIC "-//W3C//DTD SVG 1.1//EN" "http://www.w3.org/Graphics/SVG/1.1/DTD/svg11.dtd">
<svg height="9mm" version="1.1" viewBox="0 0 100 90" width="10mm" xmlns="http://www.w3.org/2000/svg" xmlns:xlink="http://www.w3.org/1999/xlink">
	<g transform="translate(50,0)">
		<g id="silkscreen">
			<rect fill="none" stroke="#000000" stroke-width="1" x="-50" y="0" width="100" height="90"/>
			<circle cx="-23" cy="5" fill="#000000" r="1" stroke="none"/>
			<g fill="#000000" font-family="OCRA" stroke="none">
				<g font-size="5" text-anchor="start" transform="translate(-2,22.5)">
					<text transform="rotate(90)" x="0" y="16">VCC</text>
					<text transform="rotate(90)" x="0" y="8">D-</text>
					<text transform="rotate(90)" x="0" y="0">D+</text>
					<text transform="rotate(90)" x="0" y="-8">ID</text>
					<text transform="rotate(90)" x="0" y="-16">GND</text>
				</g>
				<g font-size="10" text-anchor="middle" transform="translate(0,55)">
					<text x="0" y="0">USB (2.0)</text>
					<text x="0" y="10">Type-B</text>
					<text x="0" y="20">Mini</text>
				</g>
			</g>
		</g>
		<g class="top-layer" id="copper1">
			<g class="bottom-layer" id="copper0">
			</g>
			<g transform="translate(0,5)">
				<g transform="translate(0,20)">
					<g transform="translate(-40,0)">
						<rect fill="#FFBF00" height="15" id="connector-SBL.GND-pad" stroke="none" width="15" x="-7.5" y="-7.5"/>
					</g>
					<use id="connector-SBR.GND-pad" transform="translate(40,0)" xlink:href="#connector-SBL.GND-pad"/>
				</g>
				<g transform="translate(0,75)">
					<use id="connector-SFL.GND-pad" transform="translate(-40,0)" xlink:href="#connector-SBL.GND-pad"/>
					<use id="connector-SFR.GND-pad" transform="translate(40,0)" xlink:href="#connector-SBL.GND-pad"/>
				</g>
				<g transform="translate(0,0)">
					<g transform="translate(-16,0)">
						<rect fill="#FFBF00" height="15" id="connector-VCC-pad" stroke="none" width="3" x="-1.5" y="0"/>
					</g>
					<use id="connector-D--pad" transform="translate(-8,0)" xlink:href="#connector-VCC-pad"/>
					<use id="connector-D+-pad" transform="translate(0,0)" xlink:href="#connector-VCC-pad"/>
					<use id="connector-ID-pad" transform="translate(8,0)" xlink:href="#connector-VCC-pad"/>
					<use id="connector-GND-pad" transform="translate(16,0)" xlink:href="#connector-VCC-pad"/>
				</g>
				<g opacity="0">
					<g transform="translate(-16,0)">
						<circle cx="0" cy="0" id="connector-VCC-terminal" r="0.001"/>
					</g>
					<use id="connector-D--terminal" transform="translate(-8,0)" xlink:href="#connector-VCC-terminal"/>
					<use id="connector-D+-terminal" transform="translate(0,0)" xlink:href="#connector-VCC-terminal"/>
					<use id="connector-ID-terminal" transform="translate(8,0)" xlink:href="#connector-VCC-terminal"/>
					<use id="connector-GND-terminal" transform="translate(16,0)" xlink:href="#connector-VCC-terminal"/>
				</g>
			</g>
		</g>
	</g>
</svg>