; NON-PLATED HOLES START AT T1
; THROUGH (PLATED) HOLES START AT T100
M48
INCH
T100C0.05000
T101C0.050000
%
T100
X014261Y007714
X008261Y005714
X009261Y004214
X004261Y003714
X014261Y005714
X004261Y007714
X010761Y010214
X001261Y007714
X001261Y005714
X001261Y003714
X010261Y005714
X010261Y001214
X010261Y008714
X001261Y006714
X017261Y003714
X008261Y004214
X008261Y008714
X009261Y008714
X014261Y003714
X004261Y006714
X004261Y005714
X017261Y005714
X008261Y001214
X009261Y001214
X014261Y004714
X014261Y006714
X017261Y006714
X010261Y004214
X017261Y004714
X007761Y010214
X017261Y007714
X009261Y005714
X004261Y004714
X001261Y004714
T101
X013761Y012714
X006261Y009714
X012261Y001714
X012261Y008714
X009761Y012714
X004761Y012714
X012261Y007714
X006261Y006714
X006261Y004714
X006261Y005714
X012761Y012714
X006261Y001714
X012261Y002714
X017761Y012714
X008761Y012714
X003761Y012714
X006261Y002714
X005761Y012714
X002761Y012714
X014761Y012714
X001761Y012714
X015761Y012714
X006261Y007714
X010761Y012714
X006261Y003714
X012261Y005714
X006261Y008714
X016761Y012714
X012261Y004714
X012261Y003714
X006761Y012714
X012261Y009714
X011761Y012714
X012261Y006714
X007761Y012714
X000761Y012714
T00
M30
