<?xml version="1.0" encoding="UTF-8"?>
<!DOCTYPE svg PUBLIC "-//W3C//DTD SVG 1.1//EN" "http://www.w3.org/Graphics/SVG/1.1/DTD/svg11.dtd">
<svg height="1.1in" version="1.1" viewBox="0 0 60 110" width="0.6in" xmlns="http://www.w3.org/2000/svg" xmlns:xlink="http://www.w3.org/1999/xlink">
	<defs>
		<circle cx="0" cy="0" fill="#000000" id="pin-template" r="3" stroke="#FFBF00" stroke-width="1.5"/>
		<g id="1st-pin-template">
			<rect fill="#000000" height="6" stroke="#FFBF00" stroke-width="1.5" width="6" x="-3" y="-3"/>
			<use xlink:href="#pin-template"/>
		</g>
	</defs>
	<g id="breadboard">
		<g stroke="none">
			<polygon fill="#000088" points="0,0 60,0 60,110 50,110 50,100 10,100 10,110 0,110"/>
			<rect x="20" y="0" width="20" height="15" fill="#888888"/>
		</g>
		<g transform="translate(30,0)">
			<g fill="#FFFFFF" font-family="OCRA" stroke="none" transform="rotate(90)">
				<text font-size="10" text-anchor="middle" x="55" y="4">03962A</text>
				<g font-size="5" transform="translate(0,2)">
					<g text-anchor="start" transform="translate(10,0)">
						<text x="0" y="-25">VIN+</text>
						<text x="0" y="25">VIN-</text>
					</g>
					<g text-anchor="end" transform="translate(90,0)">
						<text x="0" y="-25">VOUT+</text>
						<text x="0" y="25">VOUT-</text>
					</g>
					<g text-anchor="end" transform="translate(90,0)">
						<text x="0" y="-15">BAT+</text>
						<text x="0" y="15">BAT-</text>
					</g>
				</g>
			</g>
			<g transform="translate(0,5)">
				<use id="connector-VIN+-pin" transform="translate(25,0)" xlink:href="#1st-pin-template"/>
				<use id="connector-VIN--pin" transform="translate(-25,0)" xlink:href="#pin-template"/>
			</g>
			<g transform="translate(0,95)">
				<use id="connector-VOUT+-pin" transform="translate(25,0)" xlink:href="#1st-pin-template"/>
				<use id="connector-VOUT--pin" transform="translate(-25,0)" xlink:href="#pin-template"/>
				<use id="connector-BAT+-pin" transform="translate(15,0)" xlink:href="#1st-pin-template"/>
				<use id="connector-BAT--pin" transform="translate(-15,0)" xlink:href="#pin-template"/>
			</g>
		</g>
	</g>
</svg>