<?xml version="1.0" encoding="UTF-8"?>
<!DOCTYPE svg PUBLIC "-//W3C//DTD SVG 1.1//EN" "http://www.w3.org/Graphics/SVG/1.1/DTD/svg11.dtd">
<svg height="0.3in" version="1.1" viewBox="0 0 140 30" width="1.4in" xmlns="http://www.w3.org/2000/svg" xmlns:xlink="http://www.w3.org/1999/xlink">
	<defs>
		<polygon fill="#888888" id="front-pin-template" points="-2.5,0 -2.5,1 -0.5,2 -0.5,5 0.5,5 0.5,2 2.5,1 2.5,0" stroke="none"/>
		<polygon fill="#888888" id="back-pin-template" points="-2.5,0 -2.5,-1 -0.5,-2 -0.5,-5 0.5,-5 0.5,-2 2.5,-1 2.5,0" stroke="none"/>
		<circle cx="0" cy="0" id="terminal-template" opacity="0" r="0.001"/>
	</defs>
	<g id="breadboard">
		<g stroke="none">
			<g transform="translate(0,15)">
				<rect fill="#333333" height="20" width="140" x="0" y="-10"/>
				<path d="M 5,0 C 5,2.7614237 2.7614237,5 0,5 V -5 c 2.7614237,0 5,2.2385763 5,5 z" fill="#000000" transform="translate(0,0)"/>
				<text fill="#FFFFFF" font-family="OCRA" font-size="5" text-anchor="middle" x="70" y="1.25">MCP23017</text>
				<g transform="translate(5,0)">
					<circle cx="0" cy="7.5" fill="#000000" r="1"/>
					<g transform="translate(0,10)">
						<use id="connector-DB0-pin" transform="translate(0,0)" xlink:href="#front-pin-template"/>
						<use id="connector-DB1-pin" transform="translate(10,0)" xlink:href="#front-pin-template"/>
						<use id="connector-DB2-pin" transform="translate(20,0)" xlink:href="#front-pin-template"/>
						<use id="connector-DB3-pin" transform="translate(30,0)" xlink:href="#front-pin-template"/>
						<use id="connector-DB4-pin" transform="translate(40,0)" xlink:href="#front-pin-template"/>
						<use id="connector-DB5-pin" transform="translate(50,0)" xlink:href="#front-pin-template"/>
						<use id="connector-DB6-pin" transform="translate(60,0)" xlink:href="#front-pin-template"/>
						<use id="connector-DB7-pin" transform="translate(70,0)" xlink:href="#front-pin-template"/>
						<use id="connector-VCC-pin" transform="translate(80,0)" xlink:href="#front-pin-template"/>
						<use id="connector-GND-pin" transform="translate(90,0)" xlink:href="#front-pin-template"/>
						<use id="connector-NC0-pin" transform="translate(100,0)" xlink:href="#front-pin-template"/>
						<use id="connector-SCL-pin" transform="translate(110,0)" xlink:href="#front-pin-template"/>
						<use id="connector-SDA-pin" transform="translate(120,0)" xlink:href="#front-pin-template"/>
						<use id="connector-NC1-pin" transform="translate(130,0)" xlink:href="#front-pin-template"/>
					</g>
					<g transform="translate(0,15)">
						<use id="connector-DB0-terminal" transform="translate(0,0)" xlink:href="#terminal-template"/>
						<use id="connector-DB1-terminal" transform="translate(10,0)" xlink:href="#terminal-template"/>
						<use id="connector-DB2-terminal" transform="translate(20,0)" xlink:href="#terminal-template"/>
						<use id="connector-DB3-terminal" transform="translate(30,0)" xlink:href="#terminal-template"/>
						<use id="connector-DB4-terminal" transform="translate(40,0)" xlink:href="#terminal-template"/>
						<use id="connector-DB5-terminal" transform="translate(50,0)" xlink:href="#terminal-template"/>
						<use id="connector-DB6-terminal" transform="translate(60,0)" xlink:href="#terminal-template"/>
						<use id="connector-DB7-terminal" transform="translate(70,0)" xlink:href="#terminal-template"/>
						<use id="connector-VCC-terminal" transform="translate(80,0)" xlink:href="#terminal-template"/>
						<use id="connector-GND-terminal" transform="translate(90,0)" xlink:href="#terminal-template"/>
						<use id="connector-NC0-terminal" transform="translate(100,0)" xlink:href="#terminal-template"/>
						<use id="connector-SCL-terminal" transform="translate(110,0)" xlink:href="#terminal-template"/>
						<use id="connector-SDA-terminal" transform="translate(120,0)" xlink:href="#terminal-template"/>
						<use id="connector-NC1-terminal" transform="translate(130,0)" xlink:href="#terminal-template"/>
					</g>
					<g transform="translate(0,-10)">
						<use id="connector-A0-pin" transform="translate(130,0)" xlink:href="#back-pin-template"/>
						<use id="connector-A1-pin" transform="translate(120,0)" xlink:href="#back-pin-template"/>
						<use id="connector-A2-pin" transform="translate(110,0)" xlink:href="#back-pin-template"/>
						<use id="connector-RST-pin" transform="translate(100,0)" xlink:href="#back-pin-template"/>
						<use id="connector-INTB-pin" transform="translate(90,0)" xlink:href="#back-pin-template"/>
						<use id="connector-INTA-pin" transform="translate(80,0)" xlink:href="#back-pin-template"/>
						<use id="connector-DA0-pin" transform="translate(70,0)" xlink:href="#back-pin-template"/>
						<use id="connector-DA1-pin" transform="translate(60,0)" xlink:href="#back-pin-template"/>
						<use id="connector-DA2-pin" transform="translate(50,0)" xlink:href="#back-pin-template"/>
						<use id="connector-DA3-pin" transform="translate(40,0)" xlink:href="#back-pin-template"/>
						<use id="connector-DA4-pin" transform="translate(30,0)" xlink:href="#back-pin-template"/>
						<use id="connector-DA5-pin" transform="translate(20,0)" xlink:href="#back-pin-template"/>
						<use id="connector-DA6-pin" transform="translate(10,0)" xlink:href="#back-pin-template"/>
						<use id="connector-DA7-pin" transform="translate(0,0)" xlink:href="#back-pin-template"/>
					</g>
					<g transform="translate(0,-15)">
						<use id="connector-A0-terminal" transform="translate(130,0)" xlink:href="#terminal-template"/>
						<use id="connector-A1-terminal" transform="translate(120,0)" xlink:href="#terminal-template"/>
						<use id="connector-A2-terminal" transform="translate(110,0)" xlink:href="#terminal-template"/>
						<use id="connector-RST-terminal" transform="translate(100,0)" xlink:href="#terminal-template"/>
						<use id="connector-INTB-terminal" transform="translate(90,0)" xlink:href="#terminal-template"/>
						<use id="connector-INTA-terminal" transform="translate(80,0)" xlink:href="#terminal-template"/>
						<use id="connector-DA0-terminal" transform="translate(70,0)" xlink:href="#terminal-template"/>
						<use id="connector-DA1-terminal" transform="translate(60,0)" xlink:href="#terminal-template"/>
						<use id="connector-DA2-terminal" transform="translate(50,0)" xlink:href="#terminal-template"/>
						<use id="connector-DA3-terminal" transform="translate(40,0)" xlink:href="#terminal-template"/>
						<use id="connector-DA4-terminal" transform="translate(30,0)" xlink:href="#terminal-template"/>
						<use id="connector-DA5-terminal" transform="translate(20,0)" xlink:href="#terminal-template"/>
						<use id="connector-DA6-terminal" transform="translate(10,0)" xlink:href="#terminal-template"/>
						<use id="connector-DA7-terminal" transform="translate(0,0)" xlink:href="#terminal-template"/>
					</g>
				</g>
			</g>
		</g>
	</g>
</svg>