<?xml version="1.0" encoding="UTF-8"?>
<!DOCTYPE svg PUBLIC "-//W3C//DTD SVG 1.1//EN" "http://www.w3.org/Graphics/SVG/1.1/DTD/svg11.dtd">
<svg height="0.5in" version="1.1" viewBox="0 0 140 50" width="1.4in" xmlns="http://www.w3.org/2000/svg" xmlns:xlink="http://www.w3.org/1999/xlink">
	<defs>
		<polyline fill="none" id="pin-template" points="0,-2.5 0,2.5" stroke="#888888" stroke-width="0.5"/>
		<rect fill="#888800" height="3" id="terminal-template" stroke="none" width="3" x="-1.5" y="-1.5"/>
	</defs>
	<g id="breadboard">
		<g stroke="none">
			<rect fill="#004400" height="50" width="140" x="0" y="0"/>
			<g transform="translate(0,25)">
				<rect fill="#333333" height="20" width="35" x="52.5" y="-10"/>
				<text fill="#FFFFFF" font-family="OCRA" font-size="5" text-anchor="middle" x="70" y="1.25">FT232RL</text>
				<g transform="translate(52.5,0)">
					<path d="M 2.5,0 C 2.5,1.3807118 1.3807118,2.5 0,2.5 v -5 c 1.3807118,0 2.5,1.1192882 2.5,2.5 z" fill="#000000"/>
					<g transform="translate(1.25,0)">
						<circle cx="0" cy="7.5" fill="#000000" r="0.5"/>
						<g transform="translate(0,12.5)">
							<use transform="translate(0,0)" xlink:href="#pin-template"/>
							<use transform="translate(2.5,0)" xlink:href="#pin-template"/>
							<use transform="translate(5,0)" xlink:href="#pin-template"/>
							<use transform="translate(7.5,0)" xlink:href="#pin-template"/>
							<use transform="translate(10,0)" xlink:href="#pin-template"/>
							<use transform="translate(12.5,0)" xlink:href="#pin-template"/>
							<use transform="translate(15,0)" xlink:href="#pin-template"/>
							<use transform="translate(17.5,0)" xlink:href="#pin-template"/>
							<use transform="translate(20,0)" xlink:href="#pin-template"/>
							<use transform="translate(22.5,0)" xlink:href="#pin-template"/>
							<use transform="translate(25,0)" xlink:href="#pin-template"/>
							<use transform="translate(27.5,0)" xlink:href="#pin-template"/>
							<use transform="translate(30,0)" xlink:href="#pin-template"/>
							<use transform="translate(32.5,0)" xlink:href="#pin-template"/>
						</g>
						<g transform="translate(0,-12.5)">
							<use transform="translate(32.5,0)" xlink:href="#pin-template"/>
							<use transform="translate(30,0)" xlink:href="#pin-template"/>
							<use transform="translate(27.5,0)" xlink:href="#pin-template"/>
							<use transform="translate(25,0)" xlink:href="#pin-template"/>
							<use transform="translate(22.5,0)" xlink:href="#pin-template"/>
							<use transform="translate(20,0)" xlink:href="#pin-template"/>
							<use transform="translate(17.5,0)" xlink:href="#pin-template"/>
							<use transform="translate(15,0)" xlink:href="#pin-template"/>
							<use transform="translate(12.5,0)" xlink:href="#pin-template"/>
							<use transform="translate(10,0)" xlink:href="#pin-template"/>
							<use transform="translate(7.5,0)" xlink:href="#pin-template"/>
							<use transform="translate(5,0)" xlink:href="#pin-template"/>
							<use transform="translate(2.5,0)" xlink:href="#pin-template"/>
							<use transform="translate(0,0)" xlink:href="#pin-template"/>
						</g>
					</g>
				</g>
				<g transform="translate(5,0)">
					<g transform="translate(0,20)">
						<use id="connector-TXD-pin" transform="translate(0,0)" xlink:href="#terminal-template"/>
						<use id="connector-DTR-pin" transform="translate(10,0)" xlink:href="#terminal-template"/>
						<use id="connector-RTS-pin" transform="translate(20,0)" xlink:href="#terminal-template"/>
						<use id="connector-VCCIO-pin" transform="translate(30,0)" xlink:href="#terminal-template"/>
						<use id="connector-RXD-pin" transform="translate(40,0)" xlink:href="#terminal-template"/>
						<use id="connector-RI-pin" transform="translate(50,0)" xlink:href="#terminal-template"/>
						<use id="connector-GND0-pin" transform="translate(60,0)" xlink:href="#terminal-template"/>
						<use id="connector-NC0-pin" transform="translate(70,0)" xlink:href="#terminal-template"/>
						<use id="connector-DSR-pin" transform="translate(80,0)" xlink:href="#terminal-template"/>
						<use id="connector-DCD-pin" transform="translate(90,0)" xlink:href="#terminal-template"/>
						<use id="connector-CTS-pin" transform="translate(100,0)" xlink:href="#terminal-template"/>
						<use id="connector-CBUS4-pin" transform="translate(110,0)" xlink:href="#terminal-template"/>
						<use id="connector-CBUS2-pin" transform="translate(120,0)" xlink:href="#terminal-template"/>
						<use id="connector-CBUS3-pin" transform="translate(130,0)" xlink:href="#terminal-template"/>
					</g>
					<g transform="translate(0,-20)">
						<use id="connector-USBD+-pin" transform="translate(130,0)" xlink:href="#terminal-template"/>
						<use id="connector-USBD--pin" transform="translate(120,0)" xlink:href="#terminal-template"/>
						<use id="connector-3V3-pin" transform="translate(110,0)" xlink:href="#terminal-template"/>
						<use id="connector-GND1-pin" transform="translate(100,0)" xlink:href="#terminal-template"/>
						<use id="connector-RST-pin" transform="translate(90,0)" xlink:href="#terminal-template"/>
						<use id="connector-VCC-pin" transform="translate(80,0)" xlink:href="#terminal-template"/>
						<use id="connector-GND2-pin" transform="translate(70,0)" xlink:href="#terminal-template"/>
						<use id="connector-CBUS1-pin" transform="translate(60,0)" xlink:href="#terminal-template"/>
						<use id="connector-CBUS0-pin" transform="translate(50,0)" xlink:href="#terminal-template"/>
						<use id="connector-NC1-pin" transform="translate(40,0)" xlink:href="#terminal-template"/>
						<use id="connector-AGND-pin" transform="translate(30,0)" xlink:href="#terminal-template"/>
						<use id="connector-TEST-pin" transform="translate(20,0)" xlink:href="#terminal-template"/>
						<use id="connector-OSCI-pin" transform="translate(10,0)" xlink:href="#terminal-template"/>
						<use id="connector-OSCO-pin" transform="translate(0,0)" xlink:href="#terminal-template"/>
					</g>
				</g>
			</g>
		</g>
	</g>
</svg>