<?xml version="1.0" encoding="UTF-8"?>
<!DOCTYPE svg PUBLIC "-//W3C//DTD SVG 1.1//EN" "http://www.w3.org/Graphics/SVG/1.1/DTD/svg11.dtd">
<svg height="1.1in" version="1.1" viewBox="0 0 180 110" width="1.8in" xmlns="http://www.w3.org/2000/svg" xmlns:xlink="http://www.w3.org/1999/xlink">
	<defs>
		<circle cx="0" cy="0" id="pin-template" opacity="0" r="2.5"/>
		<rect height="5" id="1st-pin-template" opacity="0" width="5" x="-2.5" y="-2.5"/>
		<g id="16-segment-template">
			<g fill="Red">
				<path d="m 50.547446,22.315888 c 0.310428,0 0.577827,0.129089 0.76224,0.335017 l 5.295723,-4.791662 C 55.32374,16.42697 53.445802,15.541788 51.263582,15.541788 H 36.117136 l -0.70999,6.7741 z"/>
				<path d="m 44.925926,86.556123 c -0.03074,0.301208 -0.19056,0.587048 -0.418003,0.792976 l 4.290674,4.791662 c 1.582877,-1.4292 2.67706,-3.408565 2.904503,-5.581564 L 54.666,58.393199 51.635482,55.003076 47.8919,58.393199 Z"/>
				<path d="M 43.674991,87.690263 H 28.534692 l -0.70999,6.76488 h 15.137226 c 2.182219,0 4.256865,-0.882109 5.833595,-2.317456 l -4.290674,-4.791662 c -0.224369,0.205928 -0.522503,0.344238 -0.829858,0.344238 z"/>
				<path d="M 12.380122,86.556123 15.336875,58.390126 12.306356,55.000002 8.5627744,58.390126 5.6029473,86.556123 c -0.2305161,2.172999 0.4487381,4.155438 1.7304078,5.581564 L 12.629079,87.346025 C 12.44774,87.143171 12.346313,86.854258 12.380122,86.556123 Z"/>
				<path d="M 12.380122,86.556123 15.336875,58.390126 12.306356,55.000002 8.5627744,58.390126 5.6029473,86.556123 c -0.2305161,2.172999 0.4487381,4.155438 1.7304078,5.581564 L 12.629079,87.346025 C 12.44774,87.143171 12.346313,86.854258 12.380122,86.556123 Z"/>
				<path d="m 19.012839,23.446954 c 0.03073,-0.307355 0.193634,-0.587048 0.421076,-0.796049 l -4.290673,-4.791662 c -1.582878,1.432274 -2.677061,3.408565 -2.907577,5.587711 l -2.9567538,28.165998 3.0305188,3.38705 3.743582,-3.38705 z"/>
				<path d="M 31.614387,58.387052 H 47.8919 l 3.740508,-3.38705 -3.033592,-3.38705 H 32.327451 Z"/>
				<path d="M 38.791123,22.315888 35.714501,51.612952 H 28.9404 l 3.079696,-29.297064 z"/>
				<path d="m 35.001438,58.387052 -3.079696,29.303211 h -6.7741 l 3.079695,-29.303211 z"/>
			</g>
			<g fill="#888888">
				<path d="m 20.263773,22.315888 h 15.1403 l 0.709989,-6.7741 H 20.970689 c -2.176072,0 -4.247644,0.888255 -5.830521,2.317455 l 4.290674,4.791662 c 0.230516,-0.202854 0.522503,-0.335017 0.832931,-0.335017 z"/>
				<path d="m 58.335817,23.446954 c 0.230516,-2.179146 -0.448738,-4.155437 -1.730408,-5.587711 l -5.295723,4.791662 c 0.187486,0.205928 0.282766,0.488694 0.248957,0.796049 l -2.959827,28.165998 3.033592,3.38705 3.743582,-3.38705 z"/>
				<path d="m 13.388245,87.690263 c -0.304281,0 -0.574753,-0.13831 -0.759166,-0.341164 l -5.2957239,4.791662 c 1.2816697,1.435347 3.1657549,2.317455 5.3449009,2.317455 h 15.146446 l 0.70999,-6.76488 H 13.388245 Z"/>
				<path d="m 16.053012,51.612952 -3.746656,3.38705 3.030519,3.38705 h 16.277512 l 0.713064,-6.7741 z"/>
				<path d="M 36.814831,41.110637 35.714501,51.612952 50.575108,32.802835 51.681585,22.300521 Z"/>
				<path d="M 27.123933,68.886294 28.227337,58.387052 13.363657,77.197169 12.260253,87.69641 Z"/>
				<path d="M 30.043804,41.110637 28.9404,51.612952 18.029303,32.802835 19.132707,22.300521 Z"/>
				<path d="M 33.901107,68.886294 35.001438,58.387052 45.909461,77.197169 44.812204,87.69641 Z"/>
				<circle cx="60.514961" cy="90.576324" r="3.8818917"/>
			</g>
		</g>
	</defs>
	<g id="breadboard">
		<g stroke="none">
			<rect fill="#000000" height="110" width="180" x="0" y="0"/>
			<g transform="translate(10,0)">
				<use transform="translate(0,0)" xlink:href="#16-segment-template"/>
				<use transform="translate(90,0)" xlink:href="#16-segment-template"/>
			</g>
			<g transform="translate(45,55)">
				<g transform="translate(0,40)">
					<use id="connector-DL-pin" transform="translate(0,0)" xlink:href="#1st-pin-template"/>
					<use id="connector-DNL-pin" transform="translate(10,0)" xlink:href="#pin-template"/>
					<use id="connector-DN-pin" transform="translate(20,0)" xlink:href="#pin-template"/>
					<use id="connector-2-pin" transform="translate(30,0)" xlink:href="#pin-template"/>
					<use id="connector-P-pin" transform="translate(40,0)" xlink:href="#pin-template"/>
					<use id="connector-E-pin" transform="translate(50,0)" xlink:href="#pin-template"/>
					<use id="connector-DNR-pin" transform="translate(60,0)" xlink:href="#pin-template"/>
					<use id="connector-C-pin" transform="translate(70,0)" xlink:href="#pin-template"/>
					<use id="connector-DR-pin" transform="translate(80,0)" xlink:href="#pin-template"/>
					<use id="connector-1-pin" transform="translate(90,0)" xlink:href="#pin-template"/>
				</g>
				<g transform="translate(0,-40)">
					<use id="connector-AR-pin" transform="translate(90,0)" xlink:href="#pin-template"/>
					<use id="connector-UPR-pin" transform="translate(80,0)" xlink:href="#pin-template"/>
					<use id="connector-AL-pin" transform="translate(70,0)" xlink:href="#pin-template"/>
					<use id="connector-NC-pin" transform="translate(60,0)" xlink:href="#pin-template"/>
					<use id="connector-F-pin" transform="translate(50,0)" xlink:href="#pin-template"/>
					<use id="connector-GR-pin" transform="translate(40,0)" xlink:href="#pin-template"/>
					<use id="connector-B-pin" transform="translate(30,0)" xlink:href="#pin-template"/>
					<use id="connector-UP-pin" transform="translate(20,0)" xlink:href="#pin-template"/>
					<use id="connector-UPL-pin" transform="translate(10,0)" xlink:href="#pin-template"/>
					<use id="connector-GL-pin" transform="translate(0,0)" xlink:href="#pin-template"/>
				</g>
			</g>
		</g>
	</g>
</svg>