<?xml version="1.0" encoding="UTF-8"?>
<!DOCTYPE svg PUBLIC "-//W3C//DTD SVG 1.1//EN" "http://www.w3.org/Graphics/SVG/1.1/DTD/svg11.dtd">
<svg height="0.4in" version="1.1" viewBox="0 0 40 40" width="0.4in" xmlns="http://www.w3.org/2000/svg" xmlns:xlink="http://www.w3.org/1999/xlink">
	<defs>
		<polygon id="direction-template" points="-1.5,-1.5 1.5,-1.5 0.5,-0.5 -0.5,-0.5"/>
		<g id="pin-template" stroke="none">
			<rect fill="#AAAA60" height="3" width="3" x="-1.5" y="-1.5"/>
			<use fill="#888860" xlink:href="#direction-template"/>
			<use fill="#777760" transform="rotate(90)" xlink:href="#direction-template"/>
			<use fill="#999960" transform="rotate(180)" xlink:href="#direction-template"/>
			<use fill="#BBBB60" transform="rotate(-90)" xlink:href="#direction-template"/>
		</g>
		<rect height="1.25" id="icon-pin-template" width="3" x="-1.5" y="-0.625"/>
	</defs>
	<g id="breadboard">
		<g stroke="none">
			<rect fill="#004400" height="40" width="40" x="0" y="0"/>
			<g transform="translate(5,20)">
				<g transform="translate(0,15)">
					<use id="connector-SBL.GND-pin" transform="translate(0,0)" xlink:href="#pin-template"/>
					<use id="connector-SFL.GND-pin" transform="translate(10,0)" xlink:href="#pin-template"/>
					<use id="connector-SFR.GND-pin" transform="translate(20,0)" xlink:href="#pin-template"/>
					<use id="connector-SBR.GND-pin" transform="translate(30,0)" xlink:href="#pin-template"/>
				</g>
				<g transform="translate(0,-15)">
					<use id="connector-VCC-pin" transform="translate(30,0)" xlink:href="#pin-template"/>
					<use id="connector-D--pin" transform="translate(20,0)" xlink:href="#pin-template"/>
					<use id="connector-D+-pin" transform="translate(10,0)" xlink:href="#pin-template"/>
					<use id="connector-GND-pin" transform="translate(0,0)" xlink:href="#pin-template"/>
				</g>
			</g>
		</g>
		<g stroke="#000000" stroke-width="0.25" transform="translate(5,15.06875)">
			<rect fill="#DDDDDD" height="9.8625" rx="0.5" width="30" x="0" y="0"/>
			<rect fill="#BBBBBB" height="3.75" rx="0.2" width="26.25" x="1.875" y="1.875"/>
			<g fill="#FFFF00" transform="translate(15,5.625)">
				<use transform="translate(-10,0)" xlink:href="#icon-pin-template"/>
				<use transform="translate(-3,0)" xlink:href="#icon-pin-template"/>
				<use transform="translate(3,0)" xlink:href="#icon-pin-template"/>
				<use transform="translate(10,0)" xlink:href="#icon-pin-template"/>
			</g>
		</g>
	</g>
</svg>