; NON-PLATED HOLES START AT T1
; THROUGH (PLATED) HOLES START AT T100
M48
INCH
T100C0.050000
T101C0.050000
%
T100
X002761Y008738
X002761Y000738
X002761Y006738
X005761Y000738
X007761Y008738
X008761Y008738
X006761Y000738
X000761Y008738
X004761Y006738
X006761Y006738
X004761Y008738
X003761Y008738
X005761Y006738
X005761Y008738
X001761Y008738
X003761Y000738
X006761Y008738
X004761Y000738
X003761Y006738
T101
X005761Y005238
X008761Y004238
X003761Y003238
X008761Y003238
X005761Y004238
X003761Y004238
X000761Y004238
X003761Y005238
X000761Y005238
X005761Y002238
X000761Y002238
X005761Y003238
X008761Y002238
X003761Y002238
X000761Y003238
X008761Y005238
T00
M30
