<?xml version="1.0" encoding="UTF-8"?>
<!DOCTYPE svg PUBLIC "-//W3C//DTD SVG 1.1//EN" "http://www.w3.org/Graphics/SVG/1.1/DTD/svg11.dtd">
<svg version="1.2" xmlns="http://www.w3.org/2000/svg" xmlns:xlink="http://www.w3.org/1999/xlink" width="0.75in" height="0.75in" viewBox="0 0 75 75">
	<g id="icon">
		<rect x="0" y="0" width="75" height="300" fill="#000000" stroke="none"/>
		<rect x="6.25" y="6.25" width="62.5" height="287.5" fill="none" stroke="#444444" stroke-width="1.5625"/>
		<g>
			<rect x="25" y="0" width="25" height="18.75" fill="#888888"/>
			<circle cx="37.5" cy="40.625" r="6.25" fill="#FFFFFF" stroke="#444444" stroke-width="1.5625"/>
			<circle cx="37.5" cy="59.375" r="6.25" fill="none" stroke="#444444" stroke-width="1.5625"/>
			<text x="37.5" y="66" text-anchor="middle" font-size="19.75" font-family="OCRA" fill="#444444">+</text>
		</g>
		<rect x="0" y="0" width="75" height="300" fill="none" stroke="#444444" stroke-width="6.25"/>
	</g>
</svg>