<?xml version="1.0" encoding="UTF-8"?>
<!DOCTYPE svg PUBLIC "-//W3C//DTD SVG 1.1//EN" "http://www.w3.org/Graphics/SVG/1.1/DTD/svg11.dtd">
<svg xmlns="http://www.w3.org/2000/svg" version="1.1" width=".84122in" height="0.864in" viewBox="0 0 841.22 864">
	<g id="icon">
		<g transform="translate(100,75.33)">
			<rect x="16.611" y="90.278" width="607.99" height="453.76" fill="#000000"/>
			<g>
				<polyline points="624.54 538.21 16.556 538.21 16.556 789.4 624.54 789.4 624.54 789.33 16.556 789.33 16.556 786.21 624.54 786.21 618.43 786.21 618.43 705.6 624.54 705.6 624.54 538.21" fill="#B3B3B3"/>
				<polyline points="32.681,545.65 608.56,545.65 608.56,739.72 595.54,739.72 473.94,739.72 473.94,779.9 167.31,779.9 167.31,739.72 32.681,739.72" fill="#333333"/>
				<polyline points="45.806,552.69 595.54,552.69 595.54,734.78 463.93,734.78 463.93,744.71 463.93,753.33 395.29,753.33 395.29,776.4 245.93,776.4 245.93,753.33 177.31,753.33 177.31,734.78 45.806,734.78"/>
				<g fill="#CCCCCC">
					<rect x="32.681" y="628.51" width="26.125" height="30.45"/>
					<rect x="582.42" y="628.51" width="26.125" height="30.45"/>
				</g>
				<g fill="#FFB000" transform="translate(154.67,552.69)">
					<rect x="0" y="0" width="17.37" height="103.66"/>
					<rect x="45" y="0" width="17.37" height="103.66"/>
					<rect x="90" y="0" width="17.37" height="103.66"/>
					<rect x="135" y="0" width="17.37" height="103.66"/>
					<rect x="180" y="0" width="17.37" height="103.66"/>
					<rect x="225" y="0" width="17.37" height="103.66"/>
					<rect x="270" y="0" width="17.37" height="103.66"/>
					<rect x="315" y="0" width="17.37" height="103.66"/>
				</g>
				<g fill="#999999">
					<polyline points="624.54 786.21 16.556 786.21 16.556 789.33 624.54 789.33 624.54 786.21"/>
					<polyline points="624.54 705.6 618.43 705.6 618.43 786.21 624.54 786.21 624.54 705.6"/>
				</g>
			</g>
			<g fill="#B3B3B3">
				<path d="m167.1 408.62c0-5.5 4.5-9.9861 10.056-9.9861h36.792c5.5 0 10.056 4.5 10.056 9.9861v131.24c0 5.5-4.5 9.9861-10.056 9.9861h-36.792c-5.5 0-10.056-4.4861-10.056-9.9861v-131.24z"/>
				<path d="m417.19 408.62c0-5.5 4.5-9.9861 10.069-9.9861h36.778c5.5 0 10.069 4.5 10.069 9.9861v131.24c0 5.5-4.5 9.9861-10.069 9.9861h-36.778c-5.5 0-10.069-4.4861-10.069-9.9861v-131.24z"/>
			</g>
			<path d="m624.62 393.38v-383.36-10h-10.014l-587.97-1.11e-5h-10.028v10 383.36h4v144.85l6.0556.0001111h119.82 10l.65278-9.9583 9.3333-141.78c.36111-5.4861 5.1667-9.9722 10.708-9.9722h37.028c5.5 0 10.25 4.4861 10.667 9.9722l9.3333 141.78.66667 9.9583h10.056 151.64 10.014l.68056-9.9583 4.8056-70.889 4.8333-70.903c.31944-5.4861 5.1806-9.9583 10.667-9.9583h36.514c5.5 0 10.278 4.4722 10.708 9.9583l4.8056 70.903 4.7778 70.889.68056 9.9583h9.9722 119.82 5.9864v-144.86l3.792.014z" fill="#CCCCCC"/>
			<g opacity=".37">
				<rect x="16.611" width="48.264" height="538.21" fill="#E6E6E6"/>
				<rect x="576.42" width="48.222" height="538.21" fill="#808080"/>
			</g>
			<g opacity=".45">
				<g fill="#E6E6E6">
					<path d="m195.53 538.21h-28.431v-129.58c0-6.6528 6.0139-10.014 10.056-10.014s18.375 0 18.375 0v139.6z"/>
					<path d="m445.61 538.21h-28.375v-129.58c0-6.6528 5.9444-10.014 9.9861-10.014s18.389 0 18.389 0l-1e-5 139.6z"/>
				</g>
				<g fill="#B3B3B3">
					<path d="m445.67 538.21h28.444v-129.58c0-6.6528-6.0417-10.014-10.083-10.014s-18.361 0-18.361 0v139.6z"/>
					<path d="m195.53 538.21h28.486v-129.58c0-6.6528-6.0139-10.014-10.056-10.014s-18.431 0-18.431 0l1e-4 139.6z"/>
				</g>
			</g>
			<g fill="#999999">
				<path d="m 16.556,667.4 c 0,0 -9.1389,-41.542 -10.875,-65.847 L 2e-4,577.9459 l 0.153,23.6073 c 1.7361,24.306 10.875,65.847 10.875,65.847 0,0 3.5278,20.792 5.5139,26.431 0.01393,-13.459 0.01393,-26.431 0.01393,-26.431 z"/>
				<path d="m 624.67,667.4 c 0,0 9.125,-41.542 10.861,-65.847 l 5.6949,-23.607 -0.181,23.607 c -1.7361,24.306 -10.861,65.847 -10.861,65.847 0,0 -3.5278,20.792 -5.5139,26.431 z"/>
			</g>
			<g fill="#CCCCCC">
				<path d="m16.556 643.96s-9.2917-41.708-11.028-66.014l-5.5278-1e-4c1.7361 24.306 11.028 66.014 11.028 66.014s3.5278 20.792 5.5139 26.431c.01391-13.444.01391-26.43.01391-26.43z"/>
				<path d="m624.67 643.96s9.3056-41.708 11.042-66.014h5.5139c-1.7361 24.306-11.042 66.014-11.042 66.014s-3.5278 20.792-5.5139 26.431v-26.431z"/>
			</g>
		</g>
	</g>
</svg>