<?xml version="1.0" encoding="UTF-8"?>
<!DOCTYPE svg PUBLIC "-//W3C//DTD SVG 1.1//EN" "http://www.w3.org/Graphics/SVG/1.1/DTD/svg11.dtd">
<svg height="0.4in" version="1.1" viewBox="0 0 40 40" width="0.4in" xmlns="http://www.w3.org/2000/svg" xmlns:xlink="http://www.w3.org/1999/xlink">
	<defs>
		<polygon fill="#888888" id="front-leg-template" points="-2.5,0 -2.5,1 -0.5,2 -0.5,5 0.5,5 0.5,2 2.5,1 2.5,0" stroke="none"/>
		<polygon fill="#888888" id="back-leg-template" points="-2.5,0 -2.5,-1 -0.5,-2 -0.5,-5 0.5,-5 0.5,-2 2.5,-1 2.5,0" stroke="none"/>
	</defs>
	<g id="icon">
		<g stroke="none">
			<g transform="translate(0,20)">
				<rect fill="#333333" height="30" width="40" x="0" y="-15"/>
				<circle cx="0" cy="0" fill="#000000" r="5"/>
				<text fill="#FFFFFF" font-family="OCRA" font-size="5" x="5" y="1.25">MAX7219</text>
				<g transform="translate(5,0)">
					<circle cx="0" cy="10" fill="#000000" r="1"/>
					<g transform="translate(0,15)">
						<use transform="translate(0,0)" xlink:href="#front-leg-template"/>
						<use transform="translate(10,0)" xlink:href="#front-leg-template"/>
						<use transform="translate(20,0)" xlink:href="#front-leg-template"/>
						<use transform="translate(30,0)" xlink:href="#front-leg-template"/>
					</g>
					<g transform="translate(0,-15)">
						<use transform="translate(0,0)" xlink:href="#back-leg-template"/>
						<use transform="translate(10,0)" xlink:href="#back-leg-template"/>
						<use transform="translate(20,0)" xlink:href="#back-leg-template"/>
						<use transform="translate(30,0)" xlink:href="#back-leg-template"/>
					</g>
				</g>
			</g>
		</g>
	</g>
</svg>