<?xml version="1.0" encoding="UTF-8"?>
<!DOCTYPE svg PUBLIC "-//W3C//DTD SVG 1.1//EN" "http://www.w3.org/Graphics/SVG/1.1/DTD/svg11.dtd">
<svg height="0.4in" version="1.1" viewBox="0 0 40 40" width="0.4in" xmlns="http://www.w3.org/2000/svg" xmlns:xlink="http://www.w3.org/1999/xlink">
	<defs>
		<polyline fill="none" id="pin-template" points="0,-2.5 0,2.5" stroke="#888888" stroke-width="0.5"/>
	</defs>
	<g id="icon">
		<g stroke="none">
			<g transform="translate(0,20)">
				<rect fill="#333333" height="30" width="40" x="0" y="-15"/>
				<text fill="#FFFFFF" font-family="OCRA" font-size="5" x="5" y="1.25">FT232RL</text>
				<circle cx="0" cy="0" fill="#000000" r="5"/>
				<g transform="translate(5,0)">
					<circle cx="0" cy="12.5" fill="#000000" r="1"/>
					<g transform="translate(0,17.5)">
						<use transform="translate(0,0)" xlink:href="#pin-template"/>
						<use transform="translate(5,0)" xlink:href="#pin-template"/>
						<use transform="translate(10,0)" xlink:href="#pin-template"/>
						<use transform="translate(15,0)" xlink:href="#pin-template"/>
						<use transform="translate(20,0)" xlink:href="#pin-template"/>
						<use transform="translate(25,0)" xlink:href="#pin-template"/>
						<use transform="translate(30,0)" xlink:href="#pin-template"/>
						<use transform="translate(35,0)" xlink:href="#pin-template"/>
					</g>
					<g transform="translate(0,-17.5)">
						<use transform="translate(0,0)" xlink:href="#pin-template"/>
						<use transform="translate(5,0)" xlink:href="#pin-template"/>
						<use transform="translate(10,0)" xlink:href="#pin-template"/>
						<use transform="translate(15,0)" xlink:href="#pin-template"/>
						<use transform="translate(20,0)" xlink:href="#pin-template"/>
						<use transform="translate(25,0)" xlink:href="#pin-template"/>
						<use transform="translate(30,0)" xlink:href="#pin-template"/>
						<use transform="translate(35,0)" xlink:href="#pin-template"/>
					</g>
				</g>
			</g>
		</g>
	</g>
</svg>