<?xml version="1.0" encoding="UTF-8"?>
<!DOCTYPE svg PUBLIC "-//W3C//DTD SVG 1.1//EN" "http://www.w3.org/Graphics/SVG/1.1/DTD/svg11.dtd">
<svg height="3.6mm" version="1.1" viewBox="0 0 6.8 3.6" width="6.8mm" xmlns="http://www.w3.org/2000/svg" xmlns:xlink="http://www.w3.org/1999/xlink">
	<defs>
		<rect height="0.32" id="pin-template" width="0.36" x="-0.18" y="-0.16"/>
	</defs>
	<g id="icon">
		<g stroke="#000000" stroke-width="0.1">
			<polygon fill="#BBBBBB" points="0,0 6.8,0 6.8,1.4 6.3,2.2 6.3,3.6 0.5,3.6 0.5,2.2 0,1.4"/>
			<polygon fill="#888888" points="0.4,0.4 6.4,0.4 6.4,1.3 5.9,2.1 5.9,3.2 0.9,3.2 0.9,2.1 0.4,1.3"/>
			<polygon fill="#000000" points="1.3,1.2 5.5,1.2 5.5,2.2 4.9,2.8 1.9,2.8 1.3,2.2"/>
			<g fill="#FFFF00" transform="translate(3.4,1.2)">
				<use transform="translate(-1.6,0)" xlink:href="#pin-template"/>
				<use transform="translate(-0.8,0)" xlink:href="#pin-template"/>
				<use transform="translate(0,0)" xlink:href="#pin-template"/>
				<use transform="translate(0.8,0)" xlink:href="#pin-template"/>
				<use transform="translate(1.6,0)" xlink:href="#pin-template"/>
			</g>
		</g>
	</g>
</svg>